RTL/Registers/VCD/addr_decoder_tb.vcd
$date
	Sun Jul 23 17:22:24 2023
$end
$version
	Icarus Verilog
$end
$timescale
	1ps
$end
$scope module tb_addr_decoder $end
$scope module u_addr_decoder $end
$var wire 8 ! ADDR [7:0] $end
$var wire 1 " ADDR_VALID $end
$var wire 1 # AS_ $end
$var wire 1 $ CLK $end
$var wire 1 % DMAC_ $end
$var wire 1 & DMADIR $end
$var wire 1 ' RW $end
$var wire 1 ( h_3C $end
$var wire 1 ) h_1C $end
$var wire 1 * h_18 $end
$var wire 1 + h_14 $end
$var wire 1 , h_10 $end
$var wire 1 - h_0C $end
$var wire 1 . h_08 $end
$var wire 1 / h_04 $end
$var reg 1 0 ACR_WR $end
$var reg 1 1 CLR_INT $end
$var reg 1 2 CONTR_RD_ $end
$var reg 1 3 CONTR_WR $end
$var reg 1 4 FLUSH_ $end
$var reg 1 5 ISTR_RD_ $end
$var reg 1 6 SP_DMA $end
$var reg 1 7 ST_DMA $end
$var reg 1 8 WDREGREQ $end
$var reg 1 9 WTC_RD_ $end
$upscope $end
$upscope $end
$enddefinitions $end
$comment Show the parameter values. $end
$dumpall
$end
#0
$dumpvars
x9
x8
x7
x6
x5
x4
x3
x2
x1
x0
0/
0.
0-
0,
0+
0*
0)
0(
1'
1&
0%
0$
0#
1"
b0 !
$end
#20000
14
01
06
07
00
03
15
12
19
08
1$
#40000
1/
b100 !
0$
#60000
09
1$
#80000
0/
1.
b1000 !
0$
#100000
02
19
1$
#120000
0.
1-
b1100 !
0$
#140000
12
1$
#160000
0-
1,
b10000 !
0$
#180000
17
1$
#200000
0,
1+
b10100 !
0$
#220000
04
07
1$
#240000
0+
1*
b11000 !
0$
#260000
14
11
1$
#280000
0*
1)
b11100 !
0$
#300000
01
05
1$
#320000
0)
b100000 !
0$
#340000
15
1$
#360000
b100100 !
0$
#380000
1$
#400000
b101000 !
0$
#420000
1$
#440000
b101100 !
0$
#460000
1$
#480000
b110000 !
0$
#500000
1$
#520000
b110100 !
0$
#540000
1$
#560000
b111000 !
0$
#580000
1$
#600000
1(
b111100 !
0$
#620000
16
1$
#640000
0(
b1000000 !
0$
#660000
06
18
1$
#680000
b1000100 !
0$
#700000
1$
#720000
b1001000 !
0$
#740000
1$
#760000
b1001100 !
0$
#780000
1$
#800000
b1010000 !
0$
#820000
1$
#840000
b1010100 !
0$
#860000
1$
#880000
b1011000 !
0$
#900000
1$
#920000
b1011100 !
0$
#940000
1$
#960000
b1100000 !
0$
#980000
1$
#1000000
b1100100 !
0$
#1020000
1$
#1040000
b1101000 !
0$
#1060000
1$
#1080000
b1101100 !
0$
#1100000
1$
#1120000
b1110000 !
0$
#1140000
1$
#1160000
b1110100 !
0$
#1180000
1$
#1200000
0$
#1220000
1$
#1240000
b0 !
0'
0$
#1260000
08
1$
#1280000
1/
b100 !
0$
#1300000
1$
#1320000
0/
1.
b1000 !
0$
#1340000
13
1$
#1360000
0.
1-
b1100 !
0$
#1380000
10
03
1$
#1400000
0-
1,
b10000 !
0$
#1420000
17
00
1$
#1440000
0,
1+
b10100 !
0$
#1460000
04
07
1$
#1480000
0+
1*
b11000 !
0$
#1500000
14
11
1$
#1520000
0*
1)
b11100 !
0$
#1540000
01
1$
#1560000
0)
b100000 !
0$
#1580000
1$
#1600000
b100100 !
0$
#1620000
1$
#1640000
b101000 !
0$
#1660000
1$
#1680000
b101100 !
0$
#1700000
1$
#1720000
b110000 !
0$
#1740000
1$
#1760000
b110100 !
0$
#1780000
1$
#1800000
b111000 !
0$
#1820000
1$
#1840000
1(
b111100 !
0$
#1860000
16
1$
#1880000
0(
b1000000 !
0$
#1900000
06
18
1$
#1920000
b1000100 !
0$
#1940000
1$
#1960000
b1001000 !
0$
#1980000
1$
#2000000
b1001100 !
0$
#2020000
1$
#2040000
b1010000 !
0$
#2060000
1$
#2080000
b1010100 !
0$
#2100000
1$
#2120000
b1011000 !
0$
#2140000
1$
#2160000
b1011100 !
0$
#2180000
1$
#2200000
b1100000 !
0$
#2220000
1$
#2240000
b1100100 !
0$
#2260000
1$
#2280000
b1101000 !
0$
#2300000
1$
#2320000
b1101100 !
0$
#2340000
1$
#2360000
b1110000 !
0$
#2380000
1$
#2400000
b1110100 !
0$
