RTL/CPU_SM/VCD/CPU_SM_tb.vcd
$date
	Fri Sep 01 22:29:55 2023
$end
$version
	Icarus Verilog
$end
$timescale
	100ps
$end
$scope module CPU_SM_tb $end
$var wire 1 ! STOPFLUSH $end
$var wire 1 " SIZE1 $end
$var wire 1 # PLLW $end
$var wire 1 $ PLHW $end
$var wire 1 % PDS $end
$var wire 1 & PAS $end
$var wire 1 ' LOCKED $end
$var wire 1 ( INCNO $end
$var wire 1 ) INCNI $end
$var wire 1 * INCFIFO $end
$var wire 1 + F2CPUL $end
$var wire 1 , F2CPUH $end
$var wire 1 - DIEL $end
$var wire 1 . DIEH $end
$var wire 1 / DECFIFO $end
$var wire 1 0 CLK90 $end
$var wire 1 1 CLK45 $end
$var wire 1 2 CLK135 $end
$var wire 1 3 BRIDGEOUT $end
$var wire 1 4 BRIDGEIN $end
$var wire 1 5 BREQ $end
$var wire 1 6 BGACK $end
$var parameter 32 7 CLK_FREQ $end
$var real 1 8 PERIOD $end
$var parameter 1 9 RESET_LEVEL $end
$var reg 1 : A1 $end
$var reg 1 ; AS_ $end
$var reg 1 < BGACK_I_ $end
$var reg 1 = BOEQ0 $end
$var reg 1 > BOEQ3 $end
$var reg 1 ? DMADIR $end
$var reg 1 @ DSACK0_ $end
$var reg 1 A DSACK1_ $end
$var reg 1 B FIFOEMPTY $end
$var reg 1 C FIFOFULL $end
$var reg 1 D RDFIFO_ $end
$var reg 1 E RIFIFO_ $end
$var reg 1 F aBGRANT_ $end
$var reg 1 G aDMAENA $end
$var reg 1 H aDREQ_ $end
$var reg 1 I aFLUSHFIFO $end
$var reg 1 J aRESET_ $end
$var reg 1 K iSTERM_ $end
$var reg 800 L sim_msg [1:800] $end
$var reg 1 M tb_clk $end
$var reg 1 N tb_rst $end
$scope module u_PLL $end
$var wire 1 M CLK $end
$var wire 1 2 CLK135 $end
$var wire 1 1 CLK45 $end
$var wire 1 0 CLK90 $end
$var wire 1 ' LOCKED $end
$var wire 1 O RST $end
$var reg 1 P Slocked $end
$var reg 1 Q c1 $end
$var reg 1 R c2 $end
$var reg 1 S c3 $end
$upscope $end
$scope module uut $end
$var wire 1 : A1 $end
$var wire 1 ; AS_ $end
$var wire 1 < BGACK_I_ $end
$var wire 1 = BOEQ0 $end
$var wire 1 > BOEQ3 $end
$var wire 1 2 CLK135 $end
$var wire 1 1 CLK45 $end
$var wire 1 0 CLK90 $end
$var wire 1 T CYCLEDONE $end
$var wire 1 ? DMADIR $end
$var wire 1 U DSACK $end
$var wire 1 @ DSACK0_ $end
$var wire 1 A DSACK1_ $end
$var wire 1 B FIFOEMPTY $end
$var wire 1 C FIFOFULL $end
$var wire 1 V LASTWORD $end
$var wire 1 D RDFIFO_ $end
$var wire 1 E RIFIFO_ $end
$var wire 1 W STERM_ $end
$var wire 1 F aBGRANT_ $end
$var wire 1 X aCYCLEDONE_ $end
$var wire 1 G aDMAENA $end
$var wire 1 H aDREQ_ $end
$var wire 1 I aFLUSHFIFO $end
$var wire 1 ' aRESET_ $end
$var wire 1 Y iDSACK $end
$var wire 1 K iSTERM_ $end
$var wire 1 Z nDSACK $end
$var wire 1 [ nSTERM_ $end
$var wire 1 \ nSTOPFLUSH_d $end
$var wire 1 ] nINCNI_d $end
$var wire 63 ^ nE [62:0] $end
$var wire 1 _ nBRIDGEIN_d $end
$var wire 1 ` nBREQ_d $end
$var wire 1 a cpudff5_d $end
$var wire 1 b cpudff4_d $end
$var wire 1 c cpudff3_d $end
$var wire 1 d cpudff2_d $end
$var wire 1 e cpudff1_d $end
$var wire 1 f SIZE1_d $end
$var wire 1 g PLLW_d $end
$var wire 1 h PLHW_d $end
$var wire 1 i PDS_d $end
$var wire 1 j PAS_d $end
$var wire 5 k NEXT_STATE [4:0] $end
$var wire 1 l INCNO_d $end
$var wire 1 m INCFIFO_d $end
$var wire 1 n F2CPUL_d $end
$var wire 1 o F2CPUH_d $end
$var wire 63 p E [62:0] $end
$var wire 1 q DIEL_d $end
$var wire 1 r DIEH_d $end
$var wire 1 s DECFIFO_d $end
$var wire 1 t BRIDGEOUT_d $end
$var wire 1 u BGACK_d $end
$var reg 1 6 BGACK $end
$var reg 1 v BGRANT_ $end
$var reg 1 5 BREQ $end
$var reg 1 4 BRIDGEIN $end
$var reg 1 3 BRIDGEOUT $end
$var reg 1 w CCRESET_ $end
$var reg 1 / DECFIFO $end
$var reg 1 . DIEH $end
$var reg 1 - DIEL $end
$var reg 1 x DMAENA $end
$var reg 1 y DREQ_ $end
$var reg 2 z DSACK_LATCHED_ [1:0] $end
$var reg 1 , F2CPUH $end
$var reg 1 + F2CPUL $end
$var reg 1 { FLUSHFIFO $end
$var reg 1 * INCFIFO $end
$var reg 1 ) INCNI $end
$var reg 1 ( INCNO $end
$var reg 1 & PAS $end
$var reg 1 % PDS $end
$var reg 1 $ PLHW $end
$var reg 1 # PLLW $end
$var reg 1 " SIZE1 $end
$var reg 5 | STATE [4:0] $end
$var reg 1 ! STOPFLUSH $end
$var reg 1 } nCYCLEDONE $end
$scope module u_CPU_SM_inputs $end
$var wire 1 : A1 $end
$var wire 1 v BGRANT_ $end
$var wire 1 > BOEQ3 $end
$var wire 1 T CYCLEDONE $end
$var wire 1 ? DMADIR $end
$var wire 1 x DMAENA $end
$var wire 1 y DREQ_ $end
$var wire 1 @ DSACK0_ $end
$var wire 1 A DSACK1_ $end
$var wire 1 B FIFOEMPTY $end
$var wire 1 C FIFOFULL $end
$var wire 1 { FLUSHFIFO $end
$var wire 1 V LASTWORD $end
$var wire 5 ~ STATE [4:0] $end
$var wire 1 !" nA1 $end
$var wire 1 "" nBGRANT_ $end
$var wire 1 #" nBOEQ3 $end
$var wire 1 $" nCYCLEDONE $end
$var wire 1 %" nDMADIR $end
$var wire 1 &" nDMAENA $end
$var wire 1 '" nDREQ_ $end
$var wire 1 (" nDSACK0_ $end
$var wire 1 )" nDSACK1_ $end
$var wire 1 *" nFIFOEMPTY $end
$var wire 1 +" nFIFOFULL $end
$var wire 1 ," nLASTWORD $end
$var wire 63 -" nE [62:0] $end
$var wire 63 ." E [62:0] $end
$upscope $end
$scope module u_CPU_SM_outputs $end
$var wire 1 /" AA $end
$var wire 1 0" BB $end
$var wire 1 1" BGACK_W $end
$var wire 1 2" BGACK_X $end
$var wire 1 u BGACK_d $end
$var wire 1 v BGRANT_ $end
$var wire 1 3" BRIDGEOUT_X $end
$var wire 1 4" BRIDGEOUT_Y $end
$var wire 1 5" BRIDGEOUT_Z $end
$var wire 1 t BRIDGEOUT_d $end
$var wire 1 6" CC $end
$var wire 1 T CYCLEDONE $end
$var wire 1 7" DD $end
$var wire 1 s DECFIFO_d $end
$var wire 1 8" DIEH_X $end
$var wire 1 9" DIEH_Y $end
$var wire 1 :" DIEH_Z $end
$var wire 1 r DIEH_d $end
$var wire 1 ;" DIEL_X $end
$var wire 1 <" DIEL_Y $end
$var wire 1 =" DIEL_Z $end
$var wire 1 q DIEL_d $end
$var wire 1 U DSACK $end
$var wire 63 >" E [62:0] $end
$var wire 1 ?" EE $end
$var wire 1 @" F2CPUH_X $end
$var wire 1 A" F2CPUH_Y $end
$var wire 1 B" F2CPUH_Z $end
$var wire 1 o F2CPUH_d $end
$var wire 1 C" F2CPUL_X $end
$var wire 1 D" F2CPUL_Y $end
$var wire 1 E" F2CPUL_Z $end
$var wire 1 n F2CPUL_d $end
$var wire 1 F" FF $end
$var wire 1 m INCFIFO_d $end
$var wire 1 l INCNO_d $end
$var wire 1 G" PAS_X $end
$var wire 1 H" PAS_Y $end
$var wire 1 j PAS_d $end
$var wire 1 I" PDS_X $end
$var wire 1 J" PDS_Y $end
$var wire 1 i PDS_d $end
$var wire 1 h PLHW_d $end
$var wire 1 K" PLLW_X $end
$var wire 1 L" PLLW_Y $end
$var wire 1 g PLLW_d $end
$var wire 1 D RDFIFO_ $end
$var wire 1 E RIFIFO_ $end
$var wire 1 M" S2ORS8 $end
$var wire 1 N" SIZE1_X $end
$var wire 1 O" SIZE1_Y $end
$var wire 1 P" SIZE1_Z $end
$var wire 1 f SIZE1_d $end
$var wire 5 Q" STATE [4:0] $end
$var wire 1 W STERM_ $end
$var wire 1 ` nBREQ_d $end
$var wire 1 _ nBRIDGEIN_d $end
$var wire 1 Z nDSACK $end
$var wire 63 R" nE [62:0] $end
$var wire 1 ] nINCNI_d $end
$var wire 1 [ nSTERM_ $end
$var wire 1 \ nSTOPFLUSH_d $end
$upscope $end
$scope module u_cpudff1 $end
$var wire 1 U DSACK $end
$var wire 63 S" E [62:0] $end
$var wire 1 W STERM_ $end
$var wire 1 e cpudff1_d $end
$var wire 1 Z nDSACK $end
$var wire 63 T" nE [62:0] $end
$var wire 1 [ nSTERM_ $end
$var wire 1 U" p1a $end
$var wire 1 V" p1b $end
$var wire 1 W" p1c $end
$upscope $end
$scope module u_cpudff2 $end
$var wire 1 U DSACK $end
$var wire 63 X" E [62:0] $end
$var wire 1 W STERM_ $end
$var wire 1 d cpudff2_d $end
$var wire 1 Z nDSACK $end
$var wire 63 Y" nE [62:0] $end
$var wire 1 [ nSTERM_ $end
$var wire 1 Z" p2a $end
$var wire 1 [" p2b $end
$var wire 1 \" p2c $end
$upscope $end
$scope module u_cpudff3 $end
$var wire 1 U DSACK $end
$var wire 63 ]" E [62:0] $end
$var wire 1 W STERM_ $end
$var wire 1 c cpudff3_d $end
$var wire 1 Z nDSACK $end
$var wire 63 ^" nE [62:0] $end
$var wire 1 [ nSTERM_ $end
$var wire 1 _" p3a $end
$var wire 1 `" p3b $end
$var wire 1 a" p3c $end
$upscope $end
$scope module u_cpudff4 $end
$var wire 1 U DSACK $end
$var wire 63 b" E [62:0] $end
$var wire 1 W STERM_ $end
$var wire 1 b cpudff4_d $end
$var wire 1 Z nDSACK $end
$var wire 63 c" nE [62:0] $end
$var wire 1 [ nSTERM_ $end
$var wire 1 d" p4a $end
$var wire 1 e" p4b $end
$var wire 1 f" p4c $end
$upscope $end
$scope module u_cpudff5 $end
$var wire 1 U DSACK $end
$var wire 63 g" E [62:0] $end
$var wire 1 W STERM_ $end
$var wire 1 a cpudff5_d $end
$var wire 1 Z nDSACK $end
$var wire 63 h" nE [62:0] $end
$var wire 1 [ nSTERM_ $end
$var wire 1 i" p5a $end
$var wire 1 j" p5b $end
$var wire 1 k" p5c $end
$upscope $end
$upscope $end
$scope task show_sim_message $end
$var reg 800 l" msg [1:800] $end
$scope begin break $end
$upscope $end
$upscope $end
$scope task sim_reset $end
$var integer 32 m" n [31:0] $end
$upscope $end
$scope task wait_ncc $end
$var integer 32 n" n [31:0] $end
$upscope $end
$scope task wait_ncco $end
$var integer 32 o" n [31:0] $end
$upscope $end
$upscope $end
$enddefinitions $end
$comment Show the parameter values. $end
$dumpall
09
r40 8
b1011111010111100001000000 7
$end
#0
$dumpvars
bx o"
bx n"
b10 m"
bx l"
xk"
1j"
xi"
bxzxxxxzxzxxzxzxxzxxzxxzxxx1x111x1x11x1x11xxxx1xx1x11x111111x1 h"
bxzxxxxzxzxxzxzxxzxxzxxzxxx0x000x0x00x0x00xxxx0xx0x00x000000x0 g"
xf"
1e"
xd"
bxzxxxxzxzxxzxzxxzxxzxxzxxx1x111x1x11x1x11xxxx1xx1x11x111111x1 c"
bxzxxxxzxzxxzxzxxzxxzxxzxxx0x000x0x00x0x00xxxx0xx0x00x000000x0 b"
xa"
1`"
x_"
bxzxxxxzxzxxzxzxxzxxzxxzxxx1x111x1x11x1x11xxxx1xx1x11x111111x1 ^"
bxzxxxxzxzxxzxzxxzxxzxxzxxx0x000x0x00x0x00xxxx0xx0x00x000000x0 ]"
x\"
1["
xZ"
bxzxxxxzxzxxzxzxxzxxzxxzxxx1x111x1x11x1x11xxxx1xx1x11x111111x1 Y"
bxzxxxxzxzxxzxzxxzxxzxxzxxx0x000x0x00x0x00xxxx0xx0x00x000000x0 X"
xW"
1V"
xU"
bxzxxxxzxzxxzxzxxzxxzxxzxxx1x111x1x11x1x11xxxx1xx1x11x111111x1 T"
bxzxxxxzxzxxzxzxxzxxzxxzxxx0x000x0x00x0x00xxxx0xx0x00x000000x0 S"
bxzxxxxzxzxxzxzxxzxxzxxzxxx1x111x1x11x1x11xxxx1xx1x11x111111x1 R"
bx Q"
xP"
1O"
xN"
xM"
xL"
xK"
xJ"
xI"
xH"
xG"
1F"
xE"
1D"
xC"
xB"
1A"
x@"
1?"
bxzxxxxzxzxxzxzxxzxxzxxzxxx0x000x0x00x0x00xxxx0xx0x00x000000x0 >"
x="
1<"
x;"
x:"
19"
x8"
17"
16"
x5"
14"
x3"
x2"
x1"
x0"
1/"
bxzxxxxzxzxxzxzxxzxxzxxzxxx0x000x0x00x0x00xxxx0xx0x00x000000x0 ."
bxzxxxxzxzxxzxzxxzxxzxxzxxx1x111x1x11x1x11xxxx1xx1x11x111111x1 -"
1,"
1+"
0*"
0)"
0("
x'"
x&"
1%"
x$"
1#"
x""
1!"
bx ~
x}
bx |
x{
b11 z
xy
xx
xw
xv
xu
xt
0s
xr
xq
bxzxxxxzxzxxzxzxxzxxzxxzxxx0x000x0x00x0x00xxxx0xx0x00x000000x0 p
xo
xn
xm
0l
bx k
xj
xi
xh
xg
xf
xe
xd
xc
xb
xa
x`
x_
bxzxxxxzxzxxzxzxxzxxzxxzxxx1x111x1x11x1x11xxxx1xx1x11x111111x1 ^
x]
x\
0[
1Z
0Y
0X
1W
0V
0U
xT
0S
0R
0Q
0P
0O
1N
0M
bx L
1K
0J
1I
0H
1G
1F
1E
1D
0C
1B
1A
1@
0?
0>
1=
1<
1;
0:
x6
x5
x4
x3
02
01
00
x/
x.
x-
x,
x+
x*
x)
x(
0'
x&
x%
x$
x#
x"
x!
$end
#200
1M
#250
11
1Q
#300
1'
1P
0(
0/
10
1R
#350
01"
0$"
bxzxxxxzxzxxzxzxxzxxzxxzxxx1x111x1x11x11111x1x11x11111111111x1 ^
bxzxxxxzxzxxzxzxxzxxzxxzxxx1x111x1x11x11111x1x11x11111111111x1 -"
bxzxxxxzxzxxzxzxxzxxzxxzxxx1x111x1x11x11111x1x11x11111111111x1 R"
bxzxxxxzxzxxzxzxxzxxzxxzxxx1x111x1x11x11111x1x11x11111111111x1 T"
bxzxxxxzxzxxzxzxxzxxzxxzxxx1x111x1x11x11111x1x11x11111111111x1 Y"
bxzxxxxzxzxxzxzxxzxxzxxzxxx1x111x1x11x11111x1x11x11111111111x1 ^"
bxzxxxxzxzxxzxzxxzxxzxxzxxx1x111x1x11x11111x1x11x11111111111x1 c"
bxzxxxxzxzxxzxzxxzxxzxxzxxx1x111x1x11x11111x1x11x11111111111x1 h"
bxzxxxxzxzxxzxzxxzxxzxxzxxx0x000x0x00x00000x0x00x00000000000x0 p
bxzxxxxzxzxxzxzxxzxxzxxzxxx0x000x0x00x00000x0x00x00000000000x0 ."
bxzxxxxzxzxxzxzxxzxxzxxzxxx0x000x0x00x00000x0x00x00000000000x0 >"
bxzxxxxzxzxxzxzxxzxxzxxzxxx0x000x0x00x00000x0x00x00000000000x0 S"
bxzxxxxzxzxxzxzxxzxxzxxzxxx0x000x0x00x00000x0x00x00000000000x0 X"
bxzxxxxzxzxxzxzxxzxxzxxzxxx0x000x0x00x00000x0x00x00000000000x0 ]"
bxzxxxxzxzxxzxzxxzxxzxxzxxx0x000x0x00x00000x0x00x00000000000x0 b"
bxzxxxxzxzxxzxzxxzxxzxxzxxx0x000x0x00x00000x0x00x00000000000x0 g"
1T
1'"
0&"
0""
0}
1{
0y
1x
1v
12
1S
#400
0M
#450
1w
01
0Q
#500
00
0R
#550
02
0S
#600
1M
#610
0'
0P
1O
0N
#650
11
1Q
#700
10
1R
#750
12
1S
#800
0M
#850
0b
0a
1d"
1i"
0e
0d
b0 k
0c
1W"
0i
1\"
0j
0r
1U"
1P"
1Z"
1f
1_"
1H"
1J"
0n
1a"
1G"
0g
0o
18"
1`
1E"
0t
1L"
1f"
0m
1_
0N"
1K"
1C"
1B"
1k"
0q
1@"
15"
0h
1I"
1]
1:"
1="
10"
1;"
1\
0u
13"
02"
1$"
b111z1111z1z11z1z11z11z11z11111111111111111111111111111111111111 ^
b111z1111z1z11z1z11z11z11z11111111111111111111111111111111111111 -"
b111z1111z1z11z1z11z11z11z11111111111111111111111111111111111111 R"
b111z1111z1z11z1z11z11z11z11111111111111111111111111111111111111 T"
b111z1111z1z11z1z11z11z11z11111111111111111111111111111111111111 Y"
b111z1111z1z11z1z11z11z11z11111111111111111111111111111111111111 ^"
b111z1111z1z11z1z11z11z11z11111111111111111111111111111111111111 c"
b111z1111z1z11z1z11z11z11z11111111111111111111111111111111111111 h"
b0z0000z0z00z0z00z00z00z00000000000000000000000000000000000000 p
b0z0000z0z00z0z00z00z00z00000000000000000000000000000000000000 ."
b0z0000z0z00z0z00z00z00z00000000000000000000000000000000000000 >"
b0z0000z0z00z0z00z00z00z00000000000000000000000000000000000000 S"
b0z0000z0z00z0z00z00z00z00000000000000000000000000000000000000 X"
b0z0000z0z00z0z00z00z00z00000000000000000000000000000000000000 ]"
b0z0000z0z00z0z00z00z00z00000000000000000000000000000000000000 b"
b0z0000z0z00z0z00z00z00z00000000000000000000000000000000000000 g"
0M"
0T
0'"
1&"
0!
0"
0#
0$
0)
0*
0+
0,
0-
0.
03
04
05
0%
0&
06
b0 |
b0 ~
b0 Q"
1}
0{
1y
0x
0w
01
0Q
#900
00
0R
#950
02
0S
#1000
1M
#1050
11
1Q
#1100
10
1R
#1150
12
1S
#1200
0M
#1250
01
0Q
#1300
00
0R
#1350
02
0S
#1400
1M
#1410
0O
b100 o"
1N
#1450
11
1Q
#1500
1'
1P
10
1R
#1550
12
1S
#1600
0M
#1650
1w
01
0Q
#1700
00
0R
#1750
02
0S
#1800
1M
#1850
11
1Q
#1900
1"
10
1R
#1950
b10000 k
1a
0i"
b0z0000z0z00z0z00z00z00z00000000000000000000000010000000000000 p
b0z0000z0z00z0z00z00z00z00000000000000000000000010000000000000 ."
b0z0000z0z00z0z00z00z00z00000000000000000000000010000000000000 >"
b0z0000z0z00z0z00z00z00z00000000000000000000000010000000000000 S"
b0z0000z0z00z0z00z00z00z00000000000000000000000010000000000000 X"
b0z0000z0z00z0z00z00z00z00000000000000000000000010000000000000 ]"
b0z0000z0z00z0z00z00z00z00000000000000000000000010000000000000 b"
b0z0000z0z00z0z00z00z00z00000000000000000000000010000000000000 g"
0$"
b111z1111z1z11z1z11z11z11z11111111111111111111111101111111111111 ^
b111z1111z1z11z1z11z11z11z11111111111111111111111101111111111111 -"
b111z1111z1z11z1z11z11z11z11111111111111111111111101111111111111 R"
b111z1111z1z11z1z11z11z11z11111111111111111111111101111111111111 T"
b111z1111z1z11z1z11z11z11z11111111111111111111111101111111111111 Y"
b111z1111z1z11z1z11z11z11z11111111111111111111111101111111111111 ^"
b111z1111z1z11z1z11z11z11z11111111111111111111111101111111111111 c"
b111z1111z1z11z1z11z11z11z11111111111111111111111101111111111111 h"
1T
1'"
0&"
0}
1{
0y
1x
12
1S
#2000
0M
#2050
01
0Q
#2100
00
0R
#2150
02
0S
#2200
1M
#2250
11
1Q
#2300
1d
b10 k
0a
0Z"
1i"
b0z0000z0z00z0z00z00z00z00000000000000000000000000000000000010 p
b0z0000z0z00z0z00z00z00z00000000000000000000000000000000000010 ."
b0z0000z0z00z0z00z00z00z00000000000000000000000000000000000010 >"
b0z0000z0z00z0z00z00z00z00000000000000000000000000000000000010 S"
b0z0000z0z00z0z00z00z00z00000000000000000000000000000000000010 X"
b0z0000z0z00z0z00z00z00z00000000000000000000000000000000000010 ]"
b0z0000z0z00z0z00z00z00z00000000000000000000000000000000000010 b"
b0z0000z0z00z0z00z00z00z00000000000000000000000000000000000010 g"
b111z1111z1z11z1z11z11z11z11111111111111111111111111111111111101 ^
b111z1111z1z11z1z11z11z11z11111111111111111111111111111111111101 -"
b111z1111z1z11z1z11z11z11z11111111111111111111111111111111111101 R"
b111z1111z1z11z1z11z11z11z11111111111111111111111111111111111101 T"
b111z1111z1z11z1z11z11z11z11111111111111111111111111111111111101 Y"
b111z1111z1z11z1z11z11z11z11111111111111111111111111111111111101 ^"
b111z1111z1z11z1z11z11z11z11111111111111111111111111111111111101 c"
b111z1111z1z11z1z11z11z11z11111111111111111111111111111111111101 h"
b10000 |
b10000 ~
b10000 Q"
10
1R
#2350
12
1S
#2400
0M
#2450
01
0Q
#2500
00
0R
#2550
02
0S
#2600
1M
#2650
11
1Q
#2700
0`
b0z0000z0z00z0z00z00z00z00000000000000000000010000000000000000 p
b0z0000z0z00z0z00z00z00z00000000000000000000010000000000000000 ."
b0z0000z0z00z0z00z00z00z00000000000000000000010000000000000000 >"
b0z0000z0z00z0z00z00z00z00000000000000000000010000000000000000 S"
b0z0000z0z00z0z00z00z00z00000000000000000000010000000000000000 X"
b0z0000z0z00z0z00z00z00z00000000000000000000010000000000000000 ]"
b0z0000z0z00z0z00z00z00z00000000000000000000010000000000000000 b"
b0z0000z0z00z0z00z00z00z00000000000000000000010000000000000000 g"
b111z1111z1z11z1z11z11z11z11111111111111111111101111111111111111 ^
b111z1111z1z11z1z11z11z11z11111111111111111111101111111111111111 -"
b111z1111z1z11z1z11z11z11z11111111111111111111101111111111111111 R"
b111z1111z1z11z1z11z11z11z11111111111111111111101111111111111111 T"
b111z1111z1z11z1z11z11z11z11111111111111111111101111111111111111 Y"
b111z1111z1z11z1z11z11z11z11111111111111111111101111111111111111 ^"
b111z1111z1z11z1z11z11z11z11111111111111111111101111111111111111 c"
b111z1111z1z11z1z11z11z11z11111111111111111111101111111111111111 h"
12"
1M"
b10 |
b10 ~
b10 Q"
10
1R
#2750
12
1S
#2800
0M
#2850
01
0Q
#2900
00
0R
#2950
02
0S
#3000
1M
#3050
11
1Q
#3100
15
10
1R
#3150
12
1S
#3200
0M
#3250
01
0Q
#3300
00
0R
#3350
02
0S
#3400
1M
#3450
11
1Q
#3500
10
1R
#3550
12
1S
#3600
0M
#3650
01
0Q
#3700
00
0R
#3750
02
0S
#3800
1M
#3850
11
1Q
#3900
10
1R
#3950
12
1S
#4000
0M
#4050
01
0Q
#4100
00
0R
#4150
02
0S
#4200
1M
#4250
11
1Q
#4300
10
1R
#4350
12
1S
#4400
0M
#4450
01
0Q
#4500
00
0R
#4550
02
0S
#4600
1M
#4610
b100000 o"
#4650
11
1Q
#4700
10
1R
#4750
12
1S
#4800
0M
#4850
01
0Q
#4900
00
0R
#4950
02
0S
#5000
1M
#5050
11
1Q
#5100
10
1R
#5150
12
1S
#5200
0M
#5250
01
0Q
#5300
00
0R
#5350
02
0S
#5400
1M
#5450
11
1Q
#5500
10
1R
#5550
12
1S
#5600
0M
#5650
01
0Q
#5700
00
0R
#5750
02
0S
#5800
1M
#5850
11
1Q
#5900
10
1R
#5950
12
1S
#6000
0M
#6050
01
0Q
#6100
00
0R
#6150
02
0S
#6200
1M
#6250
11
1Q
#6300
10
1R
#6350
12
1S
#6400
0M
#6450
01
0Q
#6500
00
0R
#6550
02
0S
#6600
1M
#6650
11
1Q
#6700
10
1R
#6750
12
1S
#6800
0M
#6850
01
0Q
#6900
00
0R
#6950
02
0S
#7000
1M
#7050
11
1Q
#7100
10
1R
#7150
12
1S
#7200
0M
#7250
01
0Q
#7300
00
0R
#7350
02
0S
#7400
1M
#7450
11
1Q
#7500
10
1R
#7550
12
1S
#7600
0M
#7650
01
0Q
#7700
00
0R
#7750
02
0S
#7800
1M
#7850
11
1Q
#7900
10
1R
#7950
12
1S
#8000
0M
#8050
01
0Q
#8100
00
0R
#8150
02
0S
#8200
1M
#8250
11
1Q
#8300
10
1R
#8350
12
1S
#8400
0M
#8450
01
0Q
#8500
00
0R
#8550
02
0S
#8600
1M
#8650
11
1Q
#8700
10
1R
#8750
12
1S
#8800
0M
#8850
01
0Q
#8900
00
0R
#8950
02
0S
#9000
1M
#9050
11
1Q
#9100
10
1R
#9150
12
1S
#9200
0M
#9250
01
0Q
#9300
00
0R
#9350
02
0S
#9400
1M
#9450
11
1Q
#9500
10
1R
#9550
12
1S
#9600
0M
#9650
01
0Q
#9700
00
0R
#9750
02
0S
#9800
1M
#9850
11
1Q
#9900
10
1R
#9950
12
1S
#10000
0M
#10050
01
0Q
#10100
00
0R
#10150
02
0S
#10200
1M
#10250
11
1Q
#10300
10
1R
#10350
12
1S
#10400
0M
#10450
01
0Q
#10500
00
0R
#10550
02
0S
#10600
1M
#10650
11
1Q
#10700
10
1R
#10750
12
1S
#10800
0M
#10850
01
0Q
#10900
00
0R
#10950
02
0S
#11000
1M
#11050
11
1Q
#11100
10
1R
#11150
12
1S
#11200
0M
#11250
01
0Q
#11300
00
0R
#11350
02
0S
#11400
1M
#11450
11
1Q
#11500
10
1R
#11550
12
1S
#11600
0M
#11650
01
0Q
#11700
00
0R
#11750
02
0S
#11800
1M
#11850
11
1Q
#11900
10
1R
#11950
12
1S
#12000
0M
#12050
01
0Q
#12100
00
0R
#12150
02
0S
#12200
1M
#12250
11
1Q
#12300
10
1R
#12350
12
1S
#12400
0M
#12450
01
0Q
#12500
00
0R
#12550
02
0S
#12600
1M
#12650
11
1Q
#12700
10
1R
#12750
12
1S
#12800
0M
#12850
01
0Q
#12900
00
0R
#12950
02
0S
#13000
1M
#13050
11
1Q
#13100
10
1R
#13150
12
1S
#13200
0M
#13250
01
0Q
#13300
00
0R
#13350
02
0S
#13400
1M
#13450
11
1Q
#13500
10
1R
#13550
12
1S
#13600
0M
#13650
01
0Q
#13700
00
0R
#13750
02
0S
#13800
1M
#13850
11
1Q
#13900
10
1R
#13950
12
1S
#14000
0M
#14050
01
0Q
#14100
00
0R
#14150
02
0S
#14200
1M
#14250
11
1Q
#14300
10
1R
#14350
12
1S
#14400
0M
#14450
01
0Q
#14500
00
0R
#14550
02
0S
#14600
1M
#14650
11
1Q
#14700
10
1R
#14750
12
1S
#14800
0M
#14850
01
0Q
#14900
00
0R
#14950
02
0S
#15000
1M
#15050
11
1Q
#15100
10
1R
#15150
12
1S
#15200
0M
#15250
01
0Q
#15300
00
0R
#15350
02
0S
#15400
1M
#15450
11
1Q
#15500
10
1R
#15550
12
1S
#15600
0M
#15650
01
0Q
#15700
00
0R
#15750
02
0S
#15800
1M
#15850
11
1Q
#15900
10
1R
#15950
12
1S
#16000
0M
#16050
01
0Q
#16100
00
0R
#16150
02
0S
#16200
1M
#16250
11
1Q
#16300
10
1R
#16350
12
1S
#16400
0M
#16450
01
0Q
#16500
00
0R
#16550
02
0S
#16600
1M
#16650
11
1Q
#16700
10
1R
#16750
12
1S
#16800
0M
#16850
01
0Q
#16900
00
0R
#16950
02
0S
#17000
1M
#17050
11
1Q
#17100
10
1R
#17150
12
1S
#17200
0M
#17250
01
0Q
#17300
00
0R
#17350
02
0S
