RTL/CPU_SM/VCD/CPU_SM_tb.vcd
$date
	Sat Feb 04 20:31:21 2023
$end
$version
	Icarus Verilog
$end
$timescale
	100ps
$end
$scope module CPU_SM_tb $end
$var wire 1 ! STOPFLUSH $end
$var wire 1 " SIZE1 $end
$var wire 1 # PLLW $end
$var wire 1 $ PLHW $end
$var wire 1 % PDS $end
$var wire 1 & PAS $end
$var wire 1 ' INCNO $end
$var wire 1 ( INCNI $end
$var wire 1 ) INCFIFO $end
$var wire 1 * F2CPUL $end
$var wire 1 + F2CPUH $end
$var wire 1 , DIEL $end
$var wire 1 - DIEH $end
$var wire 1 . DECFIFO $end
$var wire 1 / BRIDGEOUT $end
$var wire 1 0 BRIDGEIN $end
$var wire 1 1 BREQ $end
$var wire 1 2 BGACK $end
$var parameter 32 3 CLK_FREQ $end
$var real 1 4 PERIOD $end
$var reg 1 5 A1 $end
$var reg 1 6 AS_ $end
$var reg 1 7 BGACK_I_ $end
$var reg 1 8 BOEQ0 $end
$var reg 1 9 BOEQ3 $end
$var reg 1 : CLK $end
$var reg 1 ; DMADIR $end
$var reg 1 < DSACK0_ $end
$var reg 1 = DSACK1_ $end
$var reg 1 > FIFOEMPTY $end
$var reg 1 ? FIFOFULL $end
$var reg 1 @ RDFIFO_ $end
$var reg 1 A RIFIFO_ $end
$var reg 1 B STERM_ $end
$var reg 1 C aBGRANT_ $end
$var reg 1 D aDMAENA $end
$var reg 1 E aDREQ_ $end
$var reg 1 F aFLUSHFIFO $end
$var reg 1 G aRESET_ $end
$scope module uut $end
$var wire 1 5 A1 $end
$var wire 1 6 AS_ $end
$var wire 1 H BBCLK $end
$var wire 1 I BCLK $end
$var wire 1 7 BGACK_I_ $end
$var wire 1 8 BOEQ0 $end
$var wire 1 9 BOEQ3 $end
$var wire 1 : CLK $end
$var wire 1 J CLK135 $end
$var wire 1 K CLK90 $end
$var wire 1 L CYCLEDONE $end
$var wire 1 ; DMADIR $end
$var wire 1 M DSACK $end
$var wire 1 < DSACK0_ $end
$var wire 1 = DSACK1_ $end
$var wire 63 N E [62:0] $end
$var wire 1 > FIFOEMPTY $end
$var wire 1 ? FIFOFULL $end
$var wire 1 O LASTWORD $end
$var wire 1 @ RDFIFO_ $end
$var wire 1 A RIFIFO_ $end
$var wire 1 B STERM_ $end
$var wire 1 C aBGRANT_ $end
$var wire 1 P aCYCLEDONE_ $end
$var wire 1 D aDMAENA $end
$var wire 1 E aDREQ_ $end
$var wire 1 F aFLUSHFIFO $end
$var wire 1 G aRESET_ $end
$var wire 1 Q nAS_ $end
$var wire 1 R nCLK $end
$var wire 1 S nSTOPFLUSH_d $end
$var wire 1 T nINCNI_d $end
$var wire 63 U nE [62:0] $end
$var wire 1 V nBRIDGEIN_d $end
$var wire 1 W nBREQ_d $end
$var wire 1 X cpudff5_d $end
$var wire 1 Y cpudff4_d $end
$var wire 1 Z cpudff3_d $end
$var wire 1 [ cpudff2_d $end
$var wire 1 \ cpudff1_d $end
$var wire 1 ] SIZE1_d $end
$var wire 1 ^ PLLW_d $end
$var wire 1 _ PLHW_d $end
$var wire 1 ` PDS_d $end
$var wire 1 a PAS_d $end
$var wire 5 b NEXT_STATE [4:0] $end
$var wire 1 c INCNO_d $end
$var wire 1 d INCFIFO_d $end
$var wire 1 e F2CPUL_d $end
$var wire 1 f F2CPUH_d $end
$var wire 1 g DIEL_d $end
$var wire 1 h DIEH_d $end
$var wire 1 i DECFIFO_d $end
$var wire 1 j BRIDGEOUT_d $end
$var wire 1 k BGACK_d $end
$var reg 1 2 BGACK $end
$var reg 1 l BGRANT_ $end
$var reg 1 1 BREQ $end
$var reg 1 0 BRIDGEIN $end
$var reg 1 / BRIDGEOUT $end
$var reg 1 m CCRESET_ $end
$var reg 1 . DECFIFO $end
$var reg 1 - DIEH $end
$var reg 1 , DIEL $end
$var reg 1 n DMAENA $end
$var reg 1 o DREQ_ $end
$var reg 2 p DSACK_LATCHED_ [1:0] $end
$var reg 1 + F2CPUH $end
$var reg 1 * F2CPUL $end
$var reg 1 q FLUSHFIFO $end
$var reg 1 ) INCFIFO $end
$var reg 1 ( INCNI $end
$var reg 1 ' INCNO $end
$var reg 1 & PAS $end
$var reg 1 % PDS $end
$var reg 1 $ PLHW $end
$var reg 1 # PLLW $end
$var reg 1 " SIZE1 $end
$var reg 5 r STATE [4:0] $end
$var reg 1 ! STOPFLUSH $end
$var reg 1 s nCYCLEDONE $end
$scope module u_CPU_SM_inputs $end
$var wire 1 5 A1 $end
$var wire 1 l BGRANT_ $end
$var wire 1 9 BOEQ3 $end
$var wire 1 L CYCLEDONE $end
$var wire 1 ; DMADIR $end
$var wire 1 n DMAENA $end
$var wire 1 o DREQ_ $end
$var wire 1 < DSACK0_ $end
$var wire 1 = DSACK1_ $end
$var wire 63 t E [62:0] $end
$var wire 1 > FIFOEMPTY $end
$var wire 1 ? FIFOFULL $end
$var wire 1 q FLUSHFIFO $end
$var wire 1 O LASTWORD $end
$var wire 5 u STATE [4:0] $end
$var wire 1 v nA1 $end
$var wire 1 w nBGRANT_ $end
$var wire 1 x nBOEQ3 $end
$var wire 1 y nCYCLEDONE $end
$var wire 1 z nDMADIR $end
$var wire 1 { nDMAENA $end
$var wire 1 | nDREQ_ $end
$var wire 1 } nDSACK0_ $end
$var wire 1 ~ nDSACK1_ $end
$var wire 1 !" nFIFOEMPTY $end
$var wire 1 "" nFIFOFULL $end
$var wire 1 #" nLASTWORD $end
$var wire 63 $" nE [62:0] $end
$upscope $end
$scope module u_CPU_SM_outputs $end
$var wire 1 %" A $end
$var wire 1 &" B $end
$var wire 1 '" BGACK_W $end
$var wire 1 (" BGACK_X $end
$var wire 1 k BGACK_d $end
$var wire 1 l BGRANT_ $end
$var wire 1 )" BRIDGEOUT_X $end
$var wire 1 *" BRIDGEOUT_Y $end
$var wire 1 +" BRIDGEOUT_Z $end
$var wire 1 j BRIDGEOUT_d $end
$var wire 1 ," C $end
$var wire 1 L CYCLEDONE $end
$var wire 1 -" D $end
$var wire 1 ." DIEH_X $end
$var wire 1 /" DIEH_Y $end
$var wire 1 0" DIEH_Z $end
$var wire 1 h DIEH_d $end
$var wire 1 1" DIEL_X $end
$var wire 1 2" DIEL_Y $end
$var wire 1 3" DIEL_Z $end
$var wire 1 g DIEL_d $end
$var wire 1 M DSACK $end
$var wire 63 4" E [62:0] $end
$var wire 1 5" F $end
$var wire 1 6" F2CPUH_X $end
$var wire 1 7" F2CPUH_Y $end
$var wire 1 8" F2CPUH_Z $end
$var wire 1 f F2CPUH_d $end
$var wire 1 9" F2CPUL_X $end
$var wire 1 :" F2CPUL_Y $end
$var wire 1 ;" F2CPUL_Z $end
$var wire 1 e F2CPUL_d $end
$var wire 1 d INCFIFO_d $end
$var wire 1 c INCNO_d $end
$var wire 1 <" PAS_X $end
$var wire 1 =" PAS_Y $end
$var wire 1 a PAS_d $end
$var wire 1 >" PDS_X $end
$var wire 1 ?" PDS_Y $end
$var wire 1 ` PDS_d $end
$var wire 1 _ PLHW_d $end
$var wire 1 @" PLLW_X $end
$var wire 1 A" PLLW_Y $end
$var wire 1 ^ PLLW_d $end
$var wire 1 @ RDFIFO_ $end
$var wire 1 A RIFIFO_ $end
$var wire 1 B" S2ORS8 $end
$var wire 1 C" SIZE1_X $end
$var wire 1 D" SIZE1_Y $end
$var wire 1 E" SIZE1_Z $end
$var wire 1 ] SIZE1_d $end
$var wire 5 F" STATE [4:0] $end
$var wire 1 B STERM_ $end
$var wire 1 W nBREQ_d $end
$var wire 1 V nBRIDGEIN_d $end
$var wire 63 G" nE [62:0] $end
$var wire 1 T nINCNI_d $end
$var wire 1 S nSTOPFLUSH_d $end
$var wire 1 i DECFIFO_d $end
$upscope $end
$scope module u_cpudff1 $end
$var wire 1 M DSACK $end
$var wire 63 H" E [62:0] $end
$var wire 1 B STERM_ $end
$var wire 1 \ cpudff1_d $end
$var wire 63 I" nE [62:0] $end
$var wire 1 J" p1a $end
$var wire 1 K" p1b $end
$var wire 1 L" p1c $end
$upscope $end
$scope module u_cpudff2 $end
$var wire 1 M DSACK $end
$var wire 63 M" E [62:0] $end
$var wire 1 B STERM_ $end
$var wire 1 [ cpudff2_d $end
$var wire 63 N" nE [62:0] $end
$var wire 1 O" p2a $end
$var wire 1 P" p2b $end
$var wire 1 Q" p2c $end
$upscope $end
$scope module u_cpudff3 $end
$var wire 1 M DSACK $end
$var wire 63 R" E [62:0] $end
$var wire 1 B STERM_ $end
$var wire 1 Z cpudff3_d $end
$var wire 63 S" nE [62:0] $end
$var wire 1 T" p3a $end
$var wire 1 U" p3b $end
$var wire 1 V" p3c $end
$upscope $end
$scope module u_cpudff4 $end
$var wire 1 M DSACK $end
$var wire 63 W" E [62:0] $end
$var wire 1 B STERM_ $end
$var wire 1 Y cpudff4_d $end
$var wire 63 X" nE [62:0] $end
$var wire 1 Y" p4a $end
$var wire 1 Z" p4b $end
$var wire 1 [" p4c $end
$upscope $end
$scope module u_cpudff5 $end
$var wire 1 M DSACK $end
$var wire 63 \" E [62:0] $end
$var wire 1 B STERM_ $end
$var wire 1 X cpudff5_d $end
$var wire 63 ]" nE [62:0] $end
$var wire 1 ^" p5a $end
$var wire 1 _" p5b $end
$var wire 1 `" p5c $end
$upscope $end
$upscope $end
$scope task wait_n_clk $end
$var integer 32 a" i [31:0] $end
$upscope $end
$scope task wait_n_clko $end
$var integer 32 b" i [31:0] $end
$upscope $end
$upscope $end
$enddefinitions $end
$comment Show the parameter values. $end
$dumpall
r40 4
b1011111010111100001000000 3
$end
#0
$dumpvars
bx b"
b1 a"
x`"
1_"
x^"
bxzxxxxzxzxxzxzxxzxxzxxzxxxxxxxxxxxxxxxxxxxxxxxxxxxxxxxxxxxxxx ]"
bx1xxxx1x1xx1x1xx1xx1xx1xxxxxxxxxxxxxxxxxxxxxxxxxxxxxxxxxxxxxx \"
x["
1Z"
xY"
bxzxxxxzxzxxzxzxxzxxzxxzxxxxxxxxxxxxxxxxxxxxxxxxxxxxxxxxxxxxxx X"
bx1xxxx1x1xx1x1xx1xx1xx1xxxxxxxxxxxxxxxxxxxxxxxxxxxxxxxxxxxxxx W"
xV"
1U"
xT"
bxzxxxxzxzxxzxzxxzxxzxxzxxxxxxxxxxxxxxxxxxxxxxxxxxxxxxxxxxxxxx S"
bx1xxxx1x1xx1x1xx1xx1xx1xxxxxxxxxxxxxxxxxxxxxxxxxxxxxxxxxxxxxx R"
xQ"
1P"
xO"
bxzxxxxzxzxxzxzxxzxxzxxzxxxxxxxxxxxxxxxxxxxxxxxxxxxxxxxxxxxxxx N"
bx1xxxx1x1xx1x1xx1xx1xx1xxxxxxxxxxxxxxxxxxxxxxxxxxxxxxxxxxxxxx M"
xL"
1K"
xJ"
bxzxxxxzxzxxzxzxxzxxzxxzxxxxxxxxxxxxxxxxxxxxxxxxxxxxxxxxxxxxxx I"
bx1xxxx1x1xx1x1xx1xx1xx1xxxxxxxxxxxxxxxxxxxxxxxxxxxxxxxxxxxxxx H"
bxzxxxxzxzxxzxzxxzxxzxxzxxxxxxxxxxxxxxxxxxxxxxxxxxxxxxxxxxxxxx G"
bx F"
xE"
1D"
xC"
xB"
xA"
x@"
x?"
x>"
x="
x<"
x;"
1:"
x9"
x8"
17"
x6"
15"
bx1xxxx1x1xx1x1xx1xx1xx1xxxxxxxxxxxxxxxxxxxxxxxxxxxxxxxxxxxxxx 4"
x3"
12"
x1"
x0"
1/"
x."
1-"
x,"
x+"
1*"
x)"
x("
x'"
x&"
1%"
bxzxxxxzxzxxzxzxxzxxzxxzxxxxxxxxxxxxxxxxxxxxxxxxxxxxxxxxxxxxxx $"
1#"
1""
0!"
0~
0}
x|
x{
0z
xy
0x
xw
0v
bx u
bx1xxxx1x1xx1x1xx1xx1xx1xxxxxxxxxxxxxxxxxxxxxxxxxxxxxxxxxxxxxx t
xs
bx r
xq
bx p
xo
xn
xm
xl
xk
xj
xi
xh
xg
xf
xe
xd
xc
bx b
xa
x`
x_
x^
x]
x\
x[
xZ
xY
xX
xW
xV
bxzxxxxzxzxxzxzxxzxxzxxzxxxxxxxxxxxxxxxxxxxxxxxxxxxxxxxxxxxxxx U
xT
xS
xR
1Q
1P
0O
bx1xxxx1x1xx1x1xx1xx1xx1xxxxxxxxxxxxxxxxxxxxxxxxxxxxxxxxxxxxxx N
xM
xL
zK
zJ
zI
zH
0G
0F
0E
0D
1C
1B
1A
1@
0?
1>
1=
1<
1;
0:
19
08
x7
06
15
x2
x1
x0
x/
x.
x-
x,
x+
x*
x)
x(
x'
x&
x%
x$
x#
x"
x!
$end
#30
17
0k
0'"
0("
0y
0B"
1L
0|
1{
0w
0!
0"
0#
0$
0'
0(
0)
0*
0+
0,
0-
0.
0/
00
01
0%
0&
02
b0 r
b0 u
b0 F"
0s
0q
1o
0n
1l
b11 p
0m
bxzxxxxzxzxxzxzxxzxxz1xzx1x11111x1x11x1x11xxxx111x1x111111111x U
bxzxxxxzxzxxzxzxxzxxz1xzx1x11111x1x11x1x11xxxx111x1x111111111x $"
bxzxxxxzxzxxzxzxxzxxz1xzx1x11111x1x11x1x11xxxx111x1x111111111x G"
bxzxxxxzxzxxzxzxxzxxz1xzx1x11111x1x11x1x11xxxx111x1x111111111x I"
bxzxxxxzxzxxzxzxxzxxz1xzx1x11111x1x11x1x11xxxx111x1x111111111x N"
bxzxxxxzxzxxzxzxxzxxz1xzx1x11111x1x11x1x11xxxx111x1x111111111x S"
bxzxxxxzxzxxzxzxxzxxz1xzx1x11111x1x11x1x11xxxx111x1x111111111x X"
bxzxxxxzxzxxzxzxxzxxz1xzx1x11111x1x11x1x11xxxx111x1x111111111x ]"
1R
#60
bxzxxxxz1zxxz1zx1zx1z11zx1x111111111111x1111111111111111111111 U
bxzxxxxz1zxxz1zx1zx1z11zx1x111111111111x1111111111111111111111 $"
bxzxxxxz1zxxz1zx1zx1z11zx1x111111111111x1111111111111111111111 G"
bxzxxxxz1zxxz1zx1zx1z11zx1x111111111111x1111111111111111111111 I"
bxzxxxxz1zxxz1zx1zx1z11zx1x111111111111x1111111111111111111111 N"
bxzxxxxz1zxxz1zx1zx1z11zx1x111111111111x1111111111111111111111 S"
bxzxxxxz1zxxz1zx1zx1z11zx1x111111111111x1111111111111111111111 X"
bxzxxxxz1zxxz1zx1zx1z11zx1x111111111111x1111111111111111111111 ]"
#90
1T"
0c
1,"
0M
#200
b1 b"
1G
1:
#230
0R
#400
0:
#430
1m
1R
#600
1:
#610
b10 b"
1D
#630
0R
#800
0:
#830
1R
#1000
1:
#1030
0R
#1200
0:
#1230
1R
#1400
1:
#1410
0P
0Q
16
#1430
0R
#1600
0:
#1630
1R
#1800
1:
#1830
0R
#2000
0:
#2030
1R
#2200
1:
#2210
b1 b"
0C
#2230
0R
#2400
0:
#2430
1R
#2600
1:
#2610
b110010 b"
