RTL/VCD/PLL_tb.vcd
$date
	Fri Sep 01 18:08:48 2023
$end
$version
	Icarus Verilog
$end
$timescale
	100ps
$end
$scope module PLL_tb $end
$var wire 1 ! LOCKED $end
$var wire 1 " CLK90 $end
$var wire 1 # CLK45 $end
$var wire 1 $ CLK135 $end
$var parameter 32 % CLK_FREQ $end
$var real 1 & PERIOD $end
$var reg 1 ' CLK $end
$var reg 1 ( RST $end
$scope module uut $end
$var wire 1 ' CLK $end
$var wire 1 $ CLK135 $end
$var wire 1 # CLK45 $end
$var wire 1 " CLK90 $end
$var wire 1 ! LOCKED $end
$var wire 1 ( RST $end
$var reg 1 ) Slocked $end
$var reg 1 * c1 $end
$var reg 1 + c2 $end
$var reg 1 , c3 $end
$upscope $end
$scope task wait_n_clk $end
$var integer 32 - i [31:0] $end
$upscope $end
$scope task wait_n_clko $end
$var integer 32 . i [31:0] $end
$upscope $end
$upscope $end
$enddefinitions $end
$comment Show the parameter values. $end
$dumpall
r40 &
b1011111010111100001000000 %
$end
#0
$dumpvars
bx .
b10 -
0,
0+
0*
0)
1(
0'
0$
0#
0"
0!
$end
#200
1'
#250
1#
1*
#300
1"
1+
#350
1$
1,
#400
0'
#450
0#
0*
#500
0"
0+
#550
0$
0,
#600
b10 .
1'
#650
1#
1*
#700
1"
1+
#750
1$
1,
#800
0'
#850
0#
0*
#900
0"
0+
#950
0$
0,
#1000
1'
#1050
1#
1*
#1100
1"
1+
#1150
1$
1,
#1200
0'
#1250
0#
0*
#1300
0"
0+
#1350
0$
0,
#1400
1'
#1410
b10100 .
0(
#1450
1#
1*
#1500
1!
1)
1"
1+
#1550
1$
1,
#1600
0'
#1650
0#
0*
#1700
0"
0+
#1750
0$
0,
#1800
1'
#1850
1#
1*
#1900
1"
1+
#1950
1$
1,
#2000
0'
#2050
0#
0*
#2100
0"
0+
#2150
0$
0,
#2200
1'
#2250
1#
1*
#2300
1"
1+
#2350
1$
1,
#2400
0'
#2450
0#
0*
#2500
0"
0+
#2550
0$
0,
#2600
1'
#2650
1#
1*
#2700
1"
1+
#2750
1$
1,
#2800
0'
#2850
0#
0*
#2900
0"
0+
#2950
0$
0,
#3000
1'
#3050
1#
1*
#3100
1"
1+
#3150
1$
1,
#3200
0'
#3250
0#
0*
#3300
0"
0+
#3350
0$
0,
#3400
1'
#3450
1#
1*
#3500
1"
1+
#3550
1$
1,
#3600
0'
#3650
0#
0*
#3700
0"
0+
#3750
0$
0,
#3800
1'
#3850
1#
1*
#3900
1"
1+
#3950
1$
1,
#4000
0'
#4050
0#
0*
#4100
0"
0+
#4150
0$
0,
#4200
1'
#4250
1#
1*
#4300
1"
1+
#4350
1$
1,
#4400
0'
#4450
0#
0*
#4500
0"
0+
#4550
0$
0,
#4600
1'
#4650
1#
1*
#4700
1"
1+
#4750
1$
1,
#4800
0'
#4850
0#
0*
#4900
0"
0+
#4950
0$
0,
#5000
1'
#5050
1#
1*
#5100
1"
1+
#5150
1$
1,
#5200
0'
#5250
0#
0*
#5300
0"
0+
#5350
0$
0,
#5400
1'
#5450
1#
1*
#5500
1"
1+
#5550
1$
1,
#5600
0'
#5650
0#
0*
#5700
0"
0+
#5750
0$
0,
#5800
1'
#5850
1#
1*
#5900
1"
1+
#5950
1$
1,
#6000
0'
#6050
0#
0*
#6100
0"
0+
#6150
0$
0,
#6200
1'
#6250
1#
1*
#6300
1"
1+
#6350
1$
1,
#6400
0'
#6450
0#
0*
#6500
0"
0+
#6550
0$
0,
#6600
1'
#6650
1#
1*
#6700
1"
1+
#6750
1$
1,
#6800
0'
#6850
0#
0*
#6900
0"
0+
#6950
0$
0,
#7000
1'
#7050
1#
1*
#7100
1"
1+
#7150
1$
1,
#7200
0'
#7250
0#
0*
#7300
0"
0+
#7350
0$
0,
#7400
1'
#7450
1#
1*
#7500
1"
1+
#7550
1$
1,
#7600
0'
#7650
0#
0*
#7700
0"
0+
#7750
0$
0,
#7800
1'
#7850
1#
1*
#7900
1"
1+
#7950
1$
1,
#8000
0'
#8050
0#
0*
#8100
0"
0+
#8150
0$
0,
#8200
1'
#8250
1#
1*
#8300
1"
1+
#8350
1$
1,
#8400
0'
#8450
0#
0*
#8500
0"
0+
#8550
0$
0,
#8600
1'
#8650
1#
1*
#8700
1"
1+
#8750
1$
1,
#8800
0'
#8850
0#
0*
#8900
0"
0+
#8950
0$
0,
#9000
1'
#9050
1#
1*
#9100
1"
1+
#9150
1$
1,
#9200
0'
#9250
0#
0*
#9300
0"
0+
#9350
0$
0,
