RTL/VCD/PLL_tb.vcd
$date
	Sat Feb 11 15:42:59 2023
$end
$version
	Icarus Verilog
$end
$timescale
	100ps
$end
$scope module PLL_tb $end
$var wire 1 ! nCLK $end
$var wire 1 " locked $end
$var wire 1 # QnCPUCLK $end
$var wire 1 $ BCLK $end
$var wire 1 % BBCLK $end
$var parameter 32 & CLK_FREQ $end
$var real 1 ' PERIOD $end
$var reg 1 ( CPUCLK_I $end
$var reg 1 ) rst $end
$scope module uut $end
$var wire 1 % BBCLK $end
$var wire 1 $ BCLK $end
$var wire 1 ( CPUCLK_I $end
$var wire 1 # QnCPUCLK $end
$var wire 1 * c4 $end
$var wire 1 + c5 $end
$var wire 1 , c6 $end
$var wire 1 ! nCLK $end
$var wire 1 ) rst $end
$var reg 1 - c1 $end
$var reg 1 . c2 $end
$var reg 1 / c3 $end
$var reg 1 " locked $end
$upscope $end
$scope task wait_n_clk $end
$var integer 32 0 i [31:0] $end
$upscope $end
$scope task wait_n_clko $end
$var integer 32 1 i [31:0] $end
$upscope $end
$upscope $end
$enddefinitions $end
$comment Show the parameter values. $end
$dumpall
r40 '
b1011111010111100001000000 &
$end
#0
$dumpvars
bx 1
b10 0
0/
0.
0-
0,
0+
0*
1)
0(
0%
0$
1#
0"
1!
$end
#200
1,
1*
0#
1(
#225
0,
0!
1+
1-
#300
1,
0*
1$
1.
#350
0,
0+
1%
1/
#400
1,
1*
1#
0(
#425
0,
1!
1+
0-
#500
1,
0*
0$
0.
#550
0,
0+
0%
0/
#600
1,
1*
0#
b10 1
1(
#625
0,
0!
1+
1-
#700
1,
0*
1$
1.
#750
0,
0+
1%
1/
#800
1,
1*
1#
0(
#825
0,
1!
1+
0-
#900
1,
0*
0$
0.
#950
0,
0+
0%
0/
#1000
1,
1*
0#
1(
#1025
0,
0!
1+
1-
#1100
1,
0*
1$
1.
#1150
0,
0+
1%
1/
#1200
1,
1*
1#
0(
#1225
0,
1!
1+
0-
#1300
1,
0*
0$
0.
#1350
0,
0+
0%
0/
#1400
1,
1*
0#
1(
#1410
b10100 1
0)
#1425
0,
0!
1+
1-
#1500
1"
1,
0*
1$
1.
#1550
0,
0+
1%
1/
#1600
1,
1*
1#
0(
#1625
0,
1!
1+
0-
#1700
1,
0*
0$
0.
#1750
0,
0+
0%
0/
#1800
1,
1*
0#
1(
#1825
0,
0!
1+
1-
#1900
1,
0*
1$
1.
#1950
0,
0+
1%
1/
#2000
1,
1*
1#
0(
#2025
0,
1!
1+
0-
#2100
1,
0*
0$
0.
#2150
0,
0+
0%
0/
#2200
1,
1*
0#
1(
#2225
0,
0!
1+
1-
#2300
1,
0*
1$
1.
#2350
0,
0+
1%
1/
#2400
1,
1*
1#
0(
#2425
0,
1!
1+
0-
#2500
1,
0*
0$
0.
#2550
0,
0+
0%
0/
#2600
1,
1*
0#
1(
#2625
0,
0!
1+
1-
#2700
1,
0*
1$
1.
#2750
0,
0+
1%
1/
#2800
1,
1*
1#
0(
#2825
0,
1!
1+
0-
#2900
1,
0*
0$
0.
#2950
0,
0+
0%
0/
#3000
1,
1*
0#
1(
#3025
0,
0!
1+
1-
#3100
1,
0*
1$
1.
#3150
0,
0+
1%
1/
#3200
1,
1*
1#
0(
#3225
0,
1!
1+
0-
#3300
1,
0*
0$
0.
#3350
0,
0+
0%
0/
#3400
1,
1*
0#
1(
#3425
0,
0!
1+
1-
#3500
1,
0*
1$
1.
#3550
0,
0+
1%
1/
#3600
1,
1*
1#
0(
#3625
0,
1!
1+
0-
#3700
1,
0*
0$
0.
#3750
0,
0+
0%
0/
#3800
1,
1*
0#
1(
#3825
0,
0!
1+
1-
#3900
1,
0*
1$
1.
#3950
0,
0+
1%
1/
#4000
1,
1*
1#
0(
#4025
0,
1!
1+
0-
#4100
1,
0*
0$
0.
#4150
0,
0+
0%
0/
#4200
1,
1*
0#
1(
#4225
0,
0!
1+
1-
#4300
1,
0*
1$
1.
#4350
0,
0+
1%
1/
#4400
1,
1*
1#
0(
#4425
0,
1!
1+
0-
#4500
1,
0*
0$
0.
#4550
0,
0+
0%
0/
#4600
1,
1*
0#
1(
#4625
0,
0!
1+
1-
#4700
1,
0*
1$
1.
#4750
0,
0+
1%
1/
#4800
1,
1*
1#
0(
#4825
0,
1!
1+
0-
#4900
1,
0*
0$
0.
#4950
0,
0+
0%
0/
#5000
1,
1*
0#
1(
#5025
0,
0!
1+
1-
#5100
1,
0*
1$
1.
#5150
0,
0+
1%
1/
#5200
1,
1*
1#
0(
#5225
0,
1!
1+
0-
#5300
1,
0*
0$
0.
#5350
0,
0+
0%
0/
#5400
1,
1*
0#
1(
#5425
0,
0!
1+
1-
#5500
1,
0*
1$
1.
#5550
0,
0+
1%
1/
#5600
1,
1*
1#
0(
#5625
0,
1!
1+
0-
#5700
1,
0*
0$
0.
#5750
0,
0+
0%
0/
#5800
1,
1*
0#
1(
#5825
0,
0!
1+
1-
#5900
1,
0*
1$
1.
#5950
0,
0+
1%
1/
#6000
1,
1*
1#
0(
#6025
0,
1!
1+
0-
#6100
1,
0*
0$
0.
#6150
0,
0+
0%
0/
#6200
1,
1*
0#
1(
#6225
0,
0!
1+
1-
#6300
1,
0*
1$
1.
#6350
0,
0+
1%
1/
#6400
1,
1*
1#
0(
#6425
0,
1!
1+
0-
#6500
1,
0*
0$
0.
#6550
0,
0+
0%
0/
#6600
1,
1*
0#
1(
#6625
0,
0!
1+
1-
#6700
1,
0*
1$
1.
#6750
0,
0+
1%
1/
#6800
1,
1*
1#
0(
#6825
0,
1!
1+
0-
#6900
1,
0*
0$
0.
#6950
0,
0+
0%
0/
#7000
1,
1*
0#
1(
#7025
0,
0!
1+
1-
#7100
1,
0*
1$
1.
#7150
0,
0+
1%
1/
#7200
1,
1*
1#
0(
#7225
0,
1!
1+
0-
#7300
1,
0*
0$
0.
#7350
0,
0+
0%
0/
#7400
1,
1*
0#
1(
#7425
0,
0!
1+
1-
#7500
1,
0*
1$
1.
#7550
0,
0+
1%
1/
#7600
1,
1*
1#
0(
#7625
0,
1!
1+
0-
#7700
1,
0*
0$
0.
#7750
0,
0+
0%
0/
#7800
1,
1*
0#
1(
#7825
0,
0!
1+
1-
#7900
1,
0*
1$
1.
#7950
0,
0+
1%
1/
#8000
1,
1*
1#
0(
#8025
0,
1!
1+
0-
#8100
1,
0*
0$
0.
#8150
0,
0+
0%
0/
#8200
1,
1*
0#
1(
#8225
0,
0!
1+
1-
#8300
1,
0*
1$
1.
#8350
0,
0+
1%
1/
#8400
1,
1*
1#
0(
#8425
0,
1!
1+
0-
#8500
1,
0*
0$
0.
#8550
0,
0+
0%
0/
#8600
1,
1*
0#
1(
#8625
0,
0!
1+
1-
#8700
1,
0*
1$
1.
#8750
0,
0+
1%
1/
#8800
1,
1*
1#
0(
#8825
0,
1!
1+
0-
#8900
1,
0*
0$
0.
#8950
0,
0+
0%
0/
#9000
1,
1*
0#
1(
#9025
0,
0!
1+
1-
#9100
1,
0*
1$
1.
#9150
0,
0+
1%
1/
#9200
1,
1*
1#
0(
#9225
0,
1!
1+
0-
#9300
1,
0*
0$
0.
#9350
0,
0+
0%
0/
#9400
1,
1*
0#
1(
