RTL/SCSI_SM/VCD/SCSI_SM_DMA_Write_tb.vcd
$date
	Mon Jan  9 22:23:30 2023
$end
$version
	Icarus Verilog
$end
$timescale
	100ps
$end
$scope module scsi_sm_tb $end
$var wire 1 ! DACK_ $end
$var wire 1 " RE_ $end
$var wire 1 # WE_o $end
$var wire 1 $ SCSI_CS_o $end
$var wire 1 % S2F_o $end
$var wire 1 & S2CPU_o $end
$var wire 1 ' RIFIFO_o $end
$var wire 1 ( RE_o $end
$var wire 1 ) RDFIFO_o $end
$var wire 1 * LS2CPU $end
$var wire 1 + LBYTE_ $end
$var wire 1 , INCNO_o $end
$var wire 1 - INCNI_o $end
$var wire 1 . INCBO_o $end
$var wire 1 / FIFOFULL $end
$var wire 1 0 FIFOEMPTY $end
$var wire 1 1 F2S_o $end
$var wire 1 2 DACK_o $end
$var wire 1 3 CPU2S_o $end
$var wire 1 4 BOEQ3 $end
$var reg 2 5 ByteCount [1:0] $end
$var reg 1 6 CPUCLK $end
$var reg 1 7 CPUREQ $end
$var reg 1 8 DECFIFO $end
$var reg 1 9 DMADIR $end
$var reg 1 : DREQ_ $end
$var reg 1 ; INCFIFO $end
$var reg 4 < LongWordCount [3:0] $end
$var reg 1 = RESET_ $end
$var reg 1 > RW $end
$var reg 1 ? nAS_ $end
$scope module u_SCSI_SM $end
$var wire 1 @ BBCLK $end
$var wire 1 A BCLK $end
$var wire 1 4 BOEQ3 $end
$var wire 1 6 CPUCLK $end
$var wire 1 7 CPUREQ $end
$var wire 1 8 DECFIFO $end
$var wire 1 9 DMADIR $end
$var wire 1 : DREQ_ $end
$var wire 1 B DSACK_ $end
$var wire 1 0 FIFOEMPTY $end
$var wire 1 / FIFOFULL $end
$var wire 1 ; INCFIFO $end
$var wire 1 + LBYTE_ $end
$var wire 1 * LS2CPU $end
$var wire 1 C RDRST_ $end
$var wire 1 = RESET_ $end
$var wire 1 D RIRST_ $end
$var wire 1 > RW $end
$var wire 1 ? nAS_ $end
$var wire 1 E nCLK $end
$var wire 1 F WE $end
$var wire 1 G SET_DSACK $end
$var wire 1 H SCSI_CS $end
$var wire 1 I S2F $end
$var wire 1 J S2CPU $end
$var wire 1 K RE $end
$var wire 5 L NEXT_STATE [4:0] $end
$var wire 1 M INCNO $end
$var wire 1 N INCNI $end
$var wire 1 O INCBO $end
$var wire 1 P F2S $end
$var wire 28 Q E [27:0] $end
$var wire 1 R DACK $end
$var wire 1 S CPU2S $end
$var reg 1 T CCPUREQ $end
$var reg 1 U CDREQ_ $end
$var reg 1 V CDSACK_ $end
$var reg 1 3 CPU2S_o $end
$var reg 1 W CRESET_ $end
$var reg 1 2 DACK_o $end
$var reg 1 1 F2S_o $end
$var reg 1 . INCBO_o $end
$var reg 1 - INCNI_o $end
$var reg 1 , INCNO_o $end
$var reg 1 X RDFIFO_d $end
$var reg 1 ) RDFIFO_o $end
$var reg 1 ( RE_o $end
$var reg 1 Y RIFIFO_d $end
$var reg 1 ' RIFIFO_o $end
$var reg 1 & S2CPU_o $end
$var reg 1 % S2F_o $end
$var reg 1 $ SCSI_CS_o $end
$var reg 5 Z STATE [4:0] $end
$var reg 1 # WE_o $end
$var reg 1 [ nLS2CPU $end
$scope module u_scsi_sm_inputs $end
$var wire 1 4 BOEQ3 $end
$var wire 1 T CCPUREQ $end
$var wire 1 U CDREQ_ $end
$var wire 1 V CDSACK_ $end
$var wire 1 9 DMADIR $end
$var wire 1 \ E0 $end
$var wire 1 ] E1 $end
$var wire 1 ^ E10 $end
$var wire 1 _ E11 $end
$var wire 1 ` E12 $end
$var wire 1 a E13 $end
$var wire 1 b E14 $end
$var wire 1 c E15 $end
$var wire 1 d E16 $end
$var wire 1 e E17 $end
$var wire 1 f E18 $end
$var wire 1 g E19 $end
$var wire 1 h E2 $end
$var wire 1 i E20 $end
$var wire 1 j E21 $end
$var wire 1 k E22 $end
$var wire 1 l E23 $end
$var wire 1 m E24 $end
$var wire 1 n E25 $end
$var wire 1 o E26 $end
$var wire 1 p E27 $end
$var wire 1 q E3 $end
$var wire 1 r E4 $end
$var wire 1 s E5 $end
$var wire 1 t E6 $end
$var wire 1 u E7 $end
$var wire 1 v E8 $end
$var wire 1 w E9 $end
$var wire 1 0 FIFOEMPTY $end
$var wire 1 / FIFOFULL $end
$var wire 1 ) RDFIFO_o $end
$var wire 1 ' RIFIFO_o $end
$var wire 1 > RW $end
$var wire 5 x STATE [4:0] $end
$var wire 1 y nCDSACK_ $end
$var wire 1 z nDMADIR $end
$var wire 1 { nscsidff1_q $end
$var wire 1 | nscsidff2_q $end
$var wire 1 } nscsidff3_q $end
$var wire 1 ~ nscsidff4_q $end
$var wire 1 !" nscsidff5_q $end
$var wire 1 "" scsidff5_q $end
$var wire 1 #" scsidff4_q $end
$var wire 1 $" scsidff3_q $end
$var wire 1 %" scsidff2_q $end
$var wire 1 &" scsidff1_q $end
$var wire 28 '" E [27:0] $end
$upscope $end
$scope module u_scsi_sm_outputs $end
$var wire 1 S CPU2S $end
$var wire 1 R DACK $end
$var wire 28 (" E [27:0] $end
$var wire 1 P F2S $end
$var wire 1 O INCBO $end
$var wire 1 N INCNI $end
$var wire 1 M INCNO $end
$var wire 1 K RE $end
$var wire 1 J S2CPU $end
$var wire 1 I S2F $end
$var wire 1 H SCSI_CS $end
$var wire 1 G SET_DSACK $end
$var wire 1 F WE $end
$var wire 1 )" scsidff1_d $end
$var wire 1 *" scsidff2_d $end
$var wire 1 +" scsidff3_d $end
$var wire 1 ," scsidff4_d $end
$var wire 1 -" scsidff5_d $end
$var wire 5 ." NEXT_STATE [4:0] $end
$var wire 1 /" E9 $end
$var wire 1 0" E8 $end
$var wire 1 1" E7 $end
$var wire 1 2" E6 $end
$var wire 1 3" E5 $end
$var wire 1 4" E4 $end
$var wire 1 5" E3 $end
$var wire 1 6" E27 $end
$var wire 1 7" E26 $end
$var wire 1 8" E25 $end
$var wire 1 9" E24 $end
$var wire 1 :" E23 $end
$var wire 1 ;" E22 $end
$var wire 1 <" E21 $end
$var wire 1 =" E20 $end
$var wire 1 >" E2 $end
$var wire 1 ?" E19 $end
$var wire 1 @" E18 $end
$var wire 1 A" E17 $end
$var wire 1 B" E16 $end
$var wire 1 C" E15 $end
$var wire 1 D" E14 $end
$var wire 1 E" E13 $end
$var wire 1 F" E12 $end
$var wire 1 G" E11 $end
$var wire 1 H" E10 $end
$var wire 1 I" E1 $end
$var wire 1 J" E0 $end
$upscope $end
$upscope $end
$upscope $end
$enddefinitions $end
#0
$dumpvars
0J"
0I"
xH"
xG"
0F"
xE"
xD"
xC"
xB"
xA"
x@"
x?"
x>"
x="
x<"
x;"
x:"
x9"
x8"
x7"
x6"
x5"
x4"
x3"
02"
x1"
x0"
x/"
bx ."
x-"
x,"
x+"
x*"
x)"
bx0xxxxx0xxxx00 ("
bx0xxxxx0xxxx00 '"
x&"
x%"
x$"
x#"
x""
x!"
x~
x}
x|
x{
1z
xy
bx x
xw
xv
xu
0t
xs
xr
xq
xp
xo
xn
xm
xl
xk
xj
xi
xh
xg
xf
xe
xd
xc
xb
xa
0`
x_
x^
0]
0\
0[
bx Z
xY
xX
xW
xV
1U
0T
xS
xR
bx0xxxxx0xxxx00 Q
xP
xO
xN
xM
bx L
xK
xJ
xI
xH
xG
xF
0E
xD
xC
1B
1A
1@
0?
0>
1=
bx <
x;
1:
09
x8
07
16
bx 5
x4
x3
x2
x1
x0
x/
x.
x-
x,
x+
1*
1)
x(
x'
x&
x%
x$
x#
x"
x!
$end
#200
1W
1E
0A
0@
06
#400
01"
0u
05"
04"
0D"
0q
0r
0b
0?"
bx0xxxx0x0xxxx00x00x00 Q
bx0xxxx0x0xxxx00x00x00 '"
bx0xxxx0x0xxxx00x00x00 ("
0g
0y
0)
0'
04
b0 5
00
1/
b1000 <
1V
08
0C
0D
0E
0=
1A
1@
16
#600
1-"
0*"
1H
0+"
0F
0R
0,"
0K
0J
0P
b10000 L
b10000 ."
0)"
0S
13"
0E"
0O
0I
0G
1s
0a
0G"
0<"
0;"
0_
0j
0k
0M
0N
00"
0H"
0:"
07"
06"
08"
09"
0="
0@"
0A"
0B"
0C"
0/"
0>"
0v
0^
0l
0o
0p
1{
1|
1}
1~
0n
0m
0i
0f
0e
0d
0c
0w
b100000 Q
b100000 '"
b100000 ("
0h
1!"
0&"
0%"
0$"
0#"
0""
1y
b0 Z
b0 x
0V
0W
1E
0A
0@
06
#800
1+
1!
1"
0Y
0X
03
0&
01
0%
0-
0,
0.
02
0$
0#
0(
0E
1A
1@
16
#1000
1E
0A
0@
06
#1200
1C
xD
0E
1=
1A
1@
16
#1400
1W
1E
0A
0@
06
#1600
0!"
1""
0y
b10000 Z
b10000 x
1V
0E
1A
1@
16
#1800
1E
0A
0@
06
#2000
1,"
b11100 L
b11100 ."
1+"
1R
1J"
b100001 Q
b100001 '"
b100001 ("
1\
0U
0E
0:
1A
1@
16
#2200
1E
0A
0@
06
#2400
0,"
0+"
0-"
b10 L
b10 ."
1*"
1F
1P
1B"
0M
0N
0J"
1d
0>"
0\
03"
0h
b10000000000000000 Q
b10000000000000000 '"
b10000000000000000 ("
0s
0}
0~
1$"
1#"
0!
b11100 Z
b11100 x
12
0E
1A
1@
16
#2600
1E
0A
0@
06
#2800
1-"
b10010 L
b10010 ."
1*"
1E"
1F
1R
03"
1a
0s
1P
0B"
0|
1}
1~
b10000000000000 Q
b10000000000000 '"
b10000000000000 ("
0d
1!"
1%"
0$"
0#"
0""
b10 Z
b10 x
11
1#
0E
1A
1@
16
#3000
1E
0A
0@
06
#3200
0*"
0-"
b1 L
b1 ."
1)"
0E"
1/"
0a
b1000000000 Q
b1000000000 '"
b1000000000 ("
1w
0!"
1""
b10010 Z
b10010 x
0E
1A
1@
16
#3400
1E
0A
0@
06
#3600
0*"
1-"
0F
0R
b10000 L
b10000 ."
0)"
1O
13"
1G"
1s
1_
0E"
0/"
0a
0{
1|
b100000100000 Q
b100000100000 '"
b100000100000 ("
0w
1!"
1&"
0%"
0""
b1 Z
b1 x
0E
1A
1@
16
#3800
1E
0A
0@
06
#4000
b1 5
1+"
1R
1H
1J"
0P
1\
1,"
b11100 L
b11100 ."
0*"
0O
0S
0F
0G"
09"
0_
1{
b100001 Q
b100001 '"
b100001 ("
0m
0!"
0&"
1""
1!
b10000 Z
b10000 x
1.
02
0#
0E
1A
1@
16
#4200
1E
0A
0@
06
#4400
0,"
0+"
0-"
b10 L
b10 ."
1*"
1F
1P
1B"
0M
0N
0J"
1d
0>"
0\
03"
0h
b10000000000000000 Q
b10000000000000000 '"
b10000000000000000 ("
0s
0}
0~
1$"
1#"
0!
b11100 Z
b11100 x
01
0.
12
0E
1A
1@
16
#4600
1E
0A
0@
06
#4800
1-"
b10010 L
b10010 ."
1*"
1E"
1F
1R
03"
1a
0s
1P
0B"
0|
1}
1~
b10000000000000 Q
b10000000000000 '"
b10000000000000 ("
0d
1!"
1%"
0$"
0#"
0""
b10 Z
b10 x
11
1#
0E
1A
1@
16
#5000
1E
0A
0@
06
#5200
0*"
0-"
b1 L
b1 ."
1)"
0E"
1/"
0a
b1000000000 Q
b1000000000 '"
b1000000000 ("
1w
0!"
1""
b10010 Z
b10010 x
0E
1A
1@
16
#5400
1E
0A
0@
06
#5600
0*"
1-"
0F
0R
b10000 L
b10000 ."
0)"
1O
13"
1G"
1s
1_
0E"
0/"
0a
0{
1|
b100000100000 Q
b100000100000 '"
b100000100000 ("
0w
1!"
1&"
0%"
0""
b1 Z
b1 x
0E
1A
1@
16
#5800
1E
0A
0@
06
#6000
b10 5
1+"
1R
1H
1J"
0P
1\
1,"
b11100 L
b11100 ."
0*"
0O
0S
0F
0G"
09"
0_
1{
b100001 Q
b100001 '"
b100001 ("
0m
0!"
0&"
1""
1!
b10000 Z
b10000 x
1.
02
0#
0E
1A
1@
16
#6200
1E
0A
0@
06
#6400
0,"
0+"
0-"
b10 L
b10 ."
1*"
1F
1P
1B"
0M
0N
0J"
1d
0>"
0\
03"
0h
b10000000000000000 Q
b10000000000000000 '"
b10000000000000000 ("
0s
0}
0~
1$"
1#"
0!
b11100 Z
b11100 x
01
0.
12
0E
1A
1@
16
#6600
1E
0A
0@
06
#6800
1-"
b10010 L
b10010 ."
1*"
1E"
1F
1R
03"
1a
0s
1P
0B"
0|
1}
1~
b10000000000000 Q
b10000000000000 '"
b10000000000000 ("
0d
1!"
1%"
0$"
0#"
0""
b10 Z
b10 x
11
1#
0E
1A
1@
16
#7000
1E
0A
0@
06
#7200
0*"
0-"
b1 L
b1 ."
1)"
0E"
1/"
0a
b1000000000 Q
b1000000000 '"
b1000000000 ("
1w
0!"
1""
b10010 Z
b10010 x
0E
1A
1@
16
#7400
1E
0A
0@
06
#7600
0*"
1-"
0F
0R
b10000 L
b10000 ."
0)"
1O
13"
1G"
1s
1_
0E"
0/"
0a
0{
1|
b100000100000 Q
b100000100000 '"
b100000100000 ("
0w
1!"
1&"
0%"
0""
b1 Z
b1 x
0E
1A
1@
16
#7800
1E
0A
0@
06
#8000
14
b11 5
1+"
1R
1H
1J"
0P
1\
1,"
b11100 L
b11100 ."
0*"
0O
0S
0F
0G"
09"
0_
1{
b100001 Q
b100001 '"
b100001 ("
0m
0!"
0&"
1""
1!
b10000 Z
b10000 x
1.
02
0#
0E
1A
1@
16
#8200
1E
0A
0@
06
#8400
0,"
0+"
0-"
b10 L
b10 ."
1*"
1F
1P
1B"
0M
0N
0J"
1d
0>"
0\
03"
0h
b10000000000000000 Q
b10000000000000000 '"
b10000000000000000 ("
0s
0}
0~
1$"
1#"
0!
b11100 Z
b11100 x
01
0.
12
0E
1A
1@
16
#8600
1E
0A
0@
06
#8800
1-"
b10010 L
b10010 ."
1*"
1E"
1F
1R
03"
1a
0s
1P
0B"
0|
1}
1~
b10000000000000 Q
b10000000000000 '"
b10000000000000 ("
0d
1!"
1%"
0$"
0#"
0""
b10 Z
b10 x
11
1#
0E
1A
1@
16
#9000
1E
0A
0@
06
#9200
0*"
0-"
b1 L
b1 ."
1)"
0E"
1/"
0a
b1000000000 Q
b1000000000 '"
b1000000000 ("
1w
0!"
1""
b10010 Z
b10010 x
0E
1A
1@
16
#9400
1E
0A
0@
06
#9600
0*"
1-"
0F
0R
b10000 L
b10000 ."
0)"
1M
1O
15"
13"
1G"
1q
1s
1_
0E"
0/"
0a
0{
1|
b100000101000 Q
b100000101000 '"
b100000101000 ("
0w
1!"
1&"
0%"
0""
b1 Z
b1 x
0E
1A
1@
16
#9800
1E
0A
0@
06
#10000
1)
04
b0 5
0+"
0R
1H
0J"
0P
0\
0,"
b10000 L
b10000 ."
0*"
0M
0O
0S
0F
05"
0G"
09"
0q
0_
1{
b100000 Q
b100000 '"
b100000 ("
0m
0!"
0&"
1""
1!
b10000 Z
b10000 x
1X
1,
1.
02
0#
0E
1A
1@
16
#10200
1E
0A
0@
06
#10400
1,"
b11100 L
b11100 ."
1+"
1R
1J"
b100001 Q
b100001 '"
b100001 ("
1\
0)
0/
b111 <
0C
0X
01
0,
0.
18
0E
1A
1@
16
#10600
1E
0A
0@
06
#10800
0,"
0-"
0+"
b10 L
b10 ."
1*"
0K
1F
0I
1P
1B"
0J"
1d
01"
0\
03"
0u
b10000000000000000 Q
b10000000000000000 '"
b10000000000000000 ("
0s
0}
0~
1C
1$"
1#"
0!
b11100 Z
b11100 x
12
08
0E
1A
1@
16
#11000
1E
0A
0@
06
#11200
1-"
b10010 L
b10010 ."
1*"
1E"
1F
1R
03"
1a
0s
1P
0B"
0|
1}
1~
b10000000000000 Q
b10000000000000 '"
b10000000000000 ("
0d
1!"
1%"
0$"
0#"
0""
b10 Z
b10 x
11
1#
0E
1A
1@
16
#11400
1E
0A
0@
06
#11600
0*"
0-"
b1 L
b1 ."
1)"
0E"
1/"
0a
b1000000000 Q
b1000000000 '"
b1000000000 ("
1w
0!"
1""
b10010 Z
b10010 x
0E
1A
1@
16
#11800
1E
0A
0@
06
#12000
0*"
1-"
0F
0R
b10000 L
b10000 ."
0)"
1O
13"
1G"
1s
1_
0E"
0/"
0a
0{
1|
b100000100000 Q
b100000100000 '"
b100000100000 ("
0w
1!"
1&"
0%"
0""
b1 Z
b1 x
0E
1A
1@
16
#12200
1E
0A
0@
06
#12400
b1 5
1+"
1R
1H
1J"
0P
1\
1,"
b11100 L
b11100 ."
0*"
0O
0S
0F
0G"
09"
0_
1{
b100001 Q
b100001 '"
b100001 ("
0m
0!"
0&"
1""
1!
b10000 Z
b10000 x
1.
02
0#
0E
1A
1@
16
#12600
1E
0A
0@
06
#12800
0,"
0-"
0+"
b10 L
b10 ."
1*"
0K
1F
0I
1P
1B"
0J"
1d
01"
0\
03"
0u
b10000000000000000 Q
b10000000000000000 '"
b10000000000000000 ("
0s
0}
0~
1$"
1#"
0!
b11100 Z
b11100 x
01
0.
12
0E
1A
1@
16
#13000
1E
0A
0@
06
#13200
1-"
b10010 L
b10010 ."
1*"
1E"
1F
1R
03"
1a
0s
1P
0B"
0|
1}
1~
b10000000000000 Q
b10000000000000 '"
b10000000000000 ("
0d
1!"
1%"
0$"
0#"
0""
b10 Z
b10 x
11
1#
0E
1A
1@
16
#13400
1E
0A
0@
06
#13600
0*"
0-"
b1 L
b1 ."
1)"
0E"
1/"
0a
b1000000000 Q
b1000000000 '"
b1000000000 ("
1w
0!"
1""
b10010 Z
b10010 x
0E
1A
1@
16
#13800
1E
0A
0@
06
#14000
0*"
1-"
0F
0R
b10000 L
b10000 ."
0)"
1O
13"
1G"
1s
1_
0E"
0/"
0a
0{
1|
b100000100000 Q
b100000100000 '"
b100000100000 ("
0w
1!"
1&"
0%"
0""
b1 Z
b1 x
0E
1A
1@
16
#14200
1E
0A
0@
06
#14400
b10 5
1+"
1R
1H
1J"
0P
1\
1,"
b11100 L
b11100 ."
0*"
0O
0S
0F
0G"
09"
0_
1{
b100001 Q
b100001 '"
b100001 ("
0m
0!"
0&"
1""
1!
b10000 Z
b10000 x
1.
02
0#
0E
1A
1@
16
#14600
1E
0A
0@
06
#14800
0,"
0-"
0+"
b10 L
b10 ."
1*"
0K
1F
0I
1P
1B"
0J"
1d
01"
0\
03"
0u
b10000000000000000 Q
b10000000000000000 '"
b10000000000000000 ("
0s
0}
0~
1$"
1#"
0!
b11100 Z
b11100 x
01
0.
12
0E
1A
1@
16
#15000
1E
0A
0@
06
#15200
1-"
b10010 L
b10010 ."
1*"
1E"
1F
1R
03"
1a
0s
1P
0B"
0|
1}
1~
b10000000000000 Q
b10000000000000 '"
b10000000000000 ("
0d
1!"
1%"
0$"
0#"
0""
b10 Z
b10 x
11
1#
0E
1A
1@
16
#15400
1E
0A
0@
06
#15600
0*"
0-"
b1 L
b1 ."
1)"
0E"
1/"
0a
b1000000000 Q
b1000000000 '"
b1000000000 ("
1w
0!"
1""
b10010 Z
b10010 x
0E
1A
1@
16
#15800
1E
0A
0@
06
#16000
0*"
1-"
0F
0R
b10000 L
b10000 ."
0)"
1O
13"
1G"
1s
1_
0E"
0/"
0a
0{
1|
b100000100000 Q
b100000100000 '"
b100000100000 ("
0w
1!"
1&"
0%"
0""
b1 Z
b1 x
0E
1A
1@
16
#16200
1E
0A
0@
06
#16400
14
b11 5
1+"
1R
1H
1J"
0P
1\
1,"
b11100 L
b11100 ."
0*"
0O
0S
0F
0G"
09"
0_
1{
b100001 Q
b100001 '"
b100001 ("
0m
0!"
0&"
1""
1!
b10000 Z
b10000 x
1.
02
0#
0E
1A
1@
16
#16600
1E
0A
0@
06
#16800
0,"
0-"
0+"
b10 L
b10 ."
1*"
0K
1F
0I
1P
1B"
0J"
1d
01"
0\
03"
0u
b10000000000000000 Q
b10000000000000000 '"
b10000000000000000 ("
0s
0}
0~
1$"
1#"
0!
b11100 Z
b11100 x
01
0.
12
0E
1A
1@
16
#17000
1E
0A
0@
06
#17200
1-"
b10010 L
b10010 ."
1*"
1E"
1F
1R
03"
1a
0s
1P
0B"
0|
1}
1~
b10000000000000 Q
b10000000000000 '"
b10000000000000 ("
0d
1!"
1%"
0$"
0#"
0""
b10 Z
b10 x
11
1#
0E
1A
1@
16
#17400
1E
0A
0@
06
#17600
0*"
0-"
b1 L
b1 ."
1)"
0E"
1/"
0a
b1000000000 Q
b1000000000 '"
b1000000000 ("
1w
0!"
1""
b10010 Z
b10010 x
0E
1A
1@
16
#17800
1E
0A
0@
06
#18000
0*"
1-"
0F
0R
b10000 L
b10000 ."
0)"
1M
1O
15"
13"
1G"
1q
1s
1_
0E"
0/"
0a
0{
1|
b100000101000 Q
b100000101000 '"
b100000101000 ("
0w
1!"
1&"
0%"
0""
b1 Z
b1 x
0E
1A
1@
16
#18200
1E
0A
0@
06
#18400
1)
04
b0 5
0+"
0R
1H
0J"
0P
0\
0,"
b10000 L
b10000 ."
0*"
0M
0O
0S
0F
05"
0G"
09"
0q
0_
1{
b100000 Q
b100000 '"
b100000 ("
0m
0!"
0&"
1""
1!
b10000 Z
b10000 x
1X
1,
1.
02
0#
0E
1A
1@
16
#18600
1E
0A
0@
06
#18800
1,"
b11100 L
b11100 ."
1+"
1R
1J"
b100001 Q
b100001 '"
b100001 ("
1\
0)
b110 <
0C
0X
01
0,
0.
18
0E
1A
1@
16
#19000
1E
0A
0@
06
#19200
0,"
0-"
0+"
b10 L
b10 ."
1*"
0K
1F
0I
1P
1B"
0J"
1d
01"
0\
03"
0u
b10000000000000000 Q
b10000000000000000 '"
b10000000000000000 ("
0s
0}
0~
1C
1$"
1#"
0!
b11100 Z
b11100 x
12
08
0E
1A
1@
16
#19400
1E
0A
0@
06
#19600
1-"
b10010 L
b10010 ."
1*"
1E"
1F
1R
03"
1a
0s
1P
0B"
0|
1}
1~
b10000000000000 Q
b10000000000000 '"
b10000000000000 ("
0d
1!"
1%"
0$"
0#"
0""
b10 Z
b10 x
11
1#
0E
1A
1@
16
#19800
1E
0A
0@
06
#20000
0*"
0-"
b1 L
b1 ."
1)"
0E"
1/"
0a
b1000000000 Q
b1000000000 '"
b1000000000 ("
1w
0!"
1""
b10010 Z
b10010 x
0E
1A
1@
16
#20200
1E
0A
0@
06
#20400
0*"
1-"
0F
0R
b10000 L
b10000 ."
0)"
1O
13"
1G"
1s
1_
0E"
0/"
0a
0{
1|
b100000100000 Q
b100000100000 '"
b100000100000 ("
0w
1!"
1&"
0%"
0""
b1 Z
b1 x
0E
1A
1@
16
#20600
1E
0A
0@
06
#20800
b1 5
1+"
1R
1H
1J"
0P
1\
1,"
b11100 L
b11100 ."
0*"
0O
0S
0F
0G"
09"
0_
1{
b100001 Q
b100001 '"
b100001 ("
0m
0!"
0&"
1""
1!
b10000 Z
b10000 x
1.
02
0#
0E
1A
1@
16
#21000
1E
0A
0@
06
#21200
0,"
0-"
0+"
b10 L
b10 ."
1*"
0K
1F
0I
1P
1B"
0J"
1d
01"
0\
03"
0u
b10000000000000000 Q
b10000000000000000 '"
b10000000000000000 ("
0s
0}
0~
1$"
1#"
0!
b11100 Z
b11100 x
01
0.
12
0E
1A
1@
16
#21400
1E
0A
0@
06
#21600
1-"
b10010 L
b10010 ."
1*"
1E"
1F
1R
03"
1a
0s
1P
0B"
0|
1}
1~
b10000000000000 Q
b10000000000000 '"
b10000000000000 ("
0d
1!"
1%"
0$"
0#"
0""
b10 Z
b10 x
11
1#
0E
1A
1@
16
#21800
1E
0A
0@
06
#22000
0*"
0-"
b1 L
b1 ."
1)"
0E"
1/"
0a
b1000000000 Q
b1000000000 '"
b1000000000 ("
1w
0!"
1""
b10010 Z
b10010 x
0E
1A
1@
16
#22200
1E
0A
0@
06
#22400
0*"
1-"
0F
0R
b10000 L
b10000 ."
0)"
1O
13"
1G"
1s
1_
0E"
0/"
0a
0{
1|
b100000100000 Q
b100000100000 '"
b100000100000 ("
0w
1!"
1&"
0%"
0""
b1 Z
b1 x
0E
1A
1@
16
#22600
1E
0A
0@
06
#22800
b10 5
1+"
1R
1H
1J"
0P
1\
1,"
b11100 L
b11100 ."
0*"
0O
0S
0F
0G"
09"
0_
1{
b100001 Q
b100001 '"
b100001 ("
0m
0!"
0&"
1""
1!
b10000 Z
b10000 x
1.
02
0#
0E
1A
1@
16
#23000
1E
0A
0@
06
#23200
0,"
0-"
0+"
b10 L
b10 ."
1*"
0K
1F
0I
1P
1B"
0J"
1d
01"
0\
03"
0u
b10000000000000000 Q
b10000000000000000 '"
b10000000000000000 ("
0s
0}
0~
1$"
1#"
0!
b11100 Z
b11100 x
01
0.
12
0E
1A
1@
16
#23400
1E
0A
0@
06
#23600
1-"
b10010 L
b10010 ."
1*"
1E"
1F
1R
03"
1a
0s
1P
0B"
0|
1}
1~
b10000000000000 Q
b10000000000000 '"
b10000000000000 ("
0d
1!"
1%"
0$"
0#"
0""
b10 Z
b10 x
11
1#
0E
1A
1@
16
#23800
1E
0A
0@
06
#24000
0*"
0-"
b1 L
b1 ."
1)"
0E"
1/"
0a
b1000000000 Q
b1000000000 '"
b1000000000 ("
1w
0!"
1""
b10010 Z
b10010 x
0E
1A
1@
16
#24200
1E
0A
0@
06
#24400
0*"
1-"
0F
0R
b10000 L
b10000 ."
0)"
1O
13"
1G"
1s
1_
0E"
0/"
0a
0{
1|
b100000100000 Q
b100000100000 '"
b100000100000 ("
0w
1!"
1&"
0%"
0""
b1 Z
b1 x
0E
1A
1@
16
#24600
1E
0A
0@
06
#24800
14
b11 5
1+"
1R
1H
1J"
0P
1\
1,"
b11100 L
b11100 ."
0*"
0O
0S
0F
0G"
09"
0_
1{
b100001 Q
b100001 '"
b100001 ("
0m
0!"
0&"
1""
1!
b10000 Z
b10000 x
1.
02
0#
0E
1A
1@
16
#25000
1E
0A
0@
06
#25200
0,"
0-"
0+"
b10 L
b10 ."
1*"
0K
1F
0I
1P
1B"
0J"
1d
01"
0\
03"
0u
b10000000000000000 Q
b10000000000000000 '"
b10000000000000000 ("
0s
0}
0~
1$"
1#"
0!
b11100 Z
b11100 x
01
0.
12
0E
1A
1@
16
#25400
1E
0A
0@
06
#25600
1-"
b10010 L
b10010 ."
1*"
1E"
1F
1R
03"
1a
0s
1P
0B"
0|
1}
1~
b10000000000000 Q
b10000000000000 '"
b10000000000000 ("
0d
1!"
1%"
0$"
0#"
0""
b10 Z
b10 x
11
1#
0E
1A
1@
16
#25800
1E
0A
0@
06
#26000
0*"
0-"
b1 L
b1 ."
1)"
0E"
1/"
0a
b1000000000 Q
b1000000000 '"
b1000000000 ("
1w
0!"
1""
b10010 Z
b10010 x
0E
1A
1@
16
#26200
1E
0A
0@
06
#26400
0*"
1-"
0F
0R
b10000 L
b10000 ."
0)"
1M
1O
15"
13"
1G"
1q
1s
1_
0E"
0/"
0a
0{
1|
b100000101000 Q
b100000101000 '"
b100000101000 ("
0w
1!"
1&"
0%"
0""
b1 Z
b1 x
0E
1A
1@
16
#26600
1E
0A
0@
06
#26800
1)
04
b0 5
0+"
0R
1H
0J"
0P
0\
0,"
b10000 L
b10000 ."
0*"
0M
0O
0S
0F
05"
0G"
09"
0q
0_
1{
b100000 Q
b100000 '"
b100000 ("
0m
0!"
0&"
1""
1!
b10000 Z
b10000 x
1X
1,
1.
02
0#
0E
1A
1@
16
#27000
1E
0A
0@
06
#27200
1,"
b11100 L
b11100 ."
1+"
1R
1J"
b100001 Q
b100001 '"
b100001 ("
1\
0)
b101 <
0C
0X
01
0,
0.
18
0E
1A
1@
16
#27400
1E
0A
0@
06
#27600
0,"
0-"
0+"
b10 L
b10 ."
1*"
0K
1F
0I
1P
1B"
0J"
1d
01"
0\
03"
0u
b10000000000000000 Q
b10000000000000000 '"
b10000000000000000 ("
0s
0}
0~
1C
1$"
1#"
0!
b11100 Z
b11100 x
12
08
0E
1A
1@
16
#27800
1E
0A
0@
06
#28000
1-"
b10010 L
b10010 ."
1*"
1E"
1F
1R
03"
1a
0s
1P
0B"
0|
1}
1~
b10000000000000 Q
b10000000000000 '"
b10000000000000 ("
0d
1!"
1%"
0$"
0#"
0""
b10 Z
b10 x
11
1#
0E
1A
1@
16
#28200
1E
0A
0@
06
#28400
0*"
0-"
b1 L
b1 ."
1)"
0E"
1/"
0a
b1000000000 Q
b1000000000 '"
b1000000000 ("
1w
0!"
1""
b10010 Z
b10010 x
0E
1A
1@
16
#28600
1E
0A
0@
06
#28800
0*"
1-"
0F
0R
b10000 L
b10000 ."
0)"
1O
13"
1G"
1s
1_
0E"
0/"
0a
0{
1|
b100000100000 Q
b100000100000 '"
b100000100000 ("
0w
1!"
1&"
0%"
0""
b1 Z
b1 x
0E
1A
1@
16
#29000
1E
0A
0@
06
#29200
b1 5
1+"
1R
1H
1J"
0P
1\
1,"
b11100 L
b11100 ."
0*"
0O
0S
0F
0G"
09"
0_
1{
b100001 Q
b100001 '"
b100001 ("
0m
0!"
0&"
1""
1!
b10000 Z
b10000 x
1.
02
0#
0E
1A
1@
16
#29400
1E
0A
0@
06
#29600
0,"
0-"
0+"
b10 L
b10 ."
1*"
0K
1F
0I
1P
1B"
0J"
1d
01"
0\
03"
0u
b10000000000000000 Q
b10000000000000000 '"
b10000000000000000 ("
0s
0}
0~
1$"
1#"
0!
b11100 Z
b11100 x
01
0.
12
0E
1A
1@
16
#29800
1E
0A
0@
06
#30000
1-"
b10010 L
b10010 ."
1*"
1E"
1F
1R
03"
1a
0s
1P
0B"
0|
1}
1~
b10000000000000 Q
b10000000000000 '"
b10000000000000 ("
0d
1!"
1%"
0$"
0#"
0""
b10 Z
b10 x
11
1#
0E
1A
1@
16
#30200
1E
0A
0@
06
#30400
0*"
0-"
b1 L
b1 ."
1)"
0E"
1/"
0a
b1000000000 Q
b1000000000 '"
b1000000000 ("
1w
0!"
1""
b10010 Z
b10010 x
0E
1A
1@
16
#30600
1E
0A
0@
06
