RTL/FIFO/VCD/fifo_tb.vcd
$date
	Sat Feb 18 19:52:58 2023
$end
$version
	Icarus Verilog
$end
$timescale
	100ps
$end
$scope module fifo_tb $end
$var wire 32 ! OD [31:0] $end
$var wire 1 " FIFOFULL $end
$var wire 1 # FIFOEMPTY $end
$var wire 1 $ BOEQ3 $end
$var wire 1 % BOEQ0 $end
$var wire 1 & BO1 $end
$var wire 1 ' BO0 $end
$var reg 1 ( ACR_WR $end
$var reg 1 ) DECFIFO $end
$var reg 1 * H_0C $end
$var reg 32 + ID [31:0] $end
$var reg 1 , INCBO $end
$var reg 1 - INCFIFO $end
$var reg 1 . INCNI $end
$var reg 1 / INCNO $end
$var reg 1 0 LBYTE_ $end
$var reg 1 1 LHWORD $end
$var reg 1 2 LLWORD $end
$var reg 1 3 MID25 $end
$var reg 1 4 RST_FIFO_ $end
$scope module dut_fifo $end
$var wire 1 ( ACR_WR $end
$var wire 1 ) DECFIFO $end
$var wire 1 * H_0C $end
$var wire 32 5 ID [31:0] $end
$var wire 1 , INCBO $end
$var wire 1 - INCFIFO $end
$var wire 1 . INCNI $end
$var wire 1 / INCNO $end
$var wire 1 0 LBYTE_ $end
$var wire 1 1 LHWORD $end
$var wire 1 2 LLWORD $end
$var wire 1 3 MID25 $end
$var wire 32 6 OD [31:0] $end
$var wire 1 4 RST_FIFO_ $end
$var wire 3 7 WRITE_PTR [2:0] $end
$var wire 1 8 UUWS $end
$var wire 1 9 UMWS $end
$var wire 3 : READ_PTR [2:0] $end
$var wire 1 ; LMWS $end
$var wire 1 < LLWS $end
$var wire 1 " FIFOFULL $end
$var wire 1 # FIFOEMPTY $end
$var wire 2 = BYTE_PTR [1:0] $end
$var wire 1 $ BOEQ3 $end
$var wire 1 % BOEQ0 $end
$var wire 1 & BO1 $end
$var wire 1 ' BO0 $end
$scope module u_byte_ptr $end
$var wire 1 ( ACR_WR $end
$var wire 1 > BO1_CLK $end
$var wire 1 * H_0C $end
$var wire 1 , INCBO $end
$var wire 1 3 MID25 $end
$var wire 1 4 RST_FIFO_ $end
$var wire 2 ? PTR [1:0] $end
$var wire 1 @ MUXZ $end
$var reg 1 A BO0 $end
$var reg 1 B BO1 $end
$upscope $end
$scope module u_full_empty_ctr $end
$var wire 1 ) DECFIFO $end
$var wire 1 C FIFOEMPTY_RST $end
$var wire 1 D FIFOFULL_RST $end
$var wire 1 - INCFIFO $end
$var wire 1 4 RST_FIFO_ $end
$var wire 1 E UP_RST $end
$var reg 7 F DOWN [6:0] $end
$var reg 1 # FIFOEMPTY $end
$var reg 1 " FIFOFULL $end
$var reg 8 G UP [7:0] $end
$upscope $end
$scope module u_next_in_cntr $end
$var wire 1 . CLK $end
$var wire 1 4 RST_FIFO_ $end
$var reg 3 H COUNT [2:0] $end
$upscope $end
$scope module u_next_out_cntr $end
$var wire 1 / CLK $end
$var wire 1 4 RST_FIFO_ $end
$var reg 3 I COUNT [2:0] $end
$upscope $end
$scope module u_write_strobes $end
$var wire 1 0 LBYTE_ $end
$var wire 1 1 LHWORD $end
$var wire 1 2 LLWORD $end
$var wire 1 < LLWS $end
$var wire 1 ; LMWS $end
$var wire 2 J PTR [1:0] $end
$var wire 1 9 UMWS $end
$var wire 1 8 UUWS $end
$var wire 1 K BO1 $end
$var wire 1 L BO0 $end
$upscope $end
$upscope $end
$upscope $end
$enddefinitions $end
$comment Show the parameter values. $end
$dumpall
$end
#0
$dumpvars
0L
0K
b0 J
b0 I
b0 H
b0 G
b0 F
0E
0D
1C
0B
0A
x@
b0 ?
x>
b0 =
x<
x;
b0 :
x9
x8
b0 7
bx 6
bx 5
04
x3
x2
x1
x0
x/
x.
0-
x,
bx +
x*
0)
x(
0'
0&
1%
0$
1#
0"
bx !
$end
#200
1D
1E
14
#400
0#
b1 G
1C
1-
#600
0-
#800
b11 G
1-
#1000
0-
#1200
b111 G
1-
#1400
0-
#1600
b1111 G
1-
#1800
0-
#2000
b11111 G
1-
#2200
0-
#2400
b111111 G
1-
#2600
0-
#2800
b1111111 G
1-
#3000
0-
#3200
1"
b11111111 G
1-
#3400
0-
#3600
0"
b0 G
b1111111 F
1D
1E
1)
#3800
0)
#4000
b1111110 F
1)
#4200
0)
#4400
b1111100 F
1)
#4600
0)
#4800
b1111000 F
1)
#5000
0)
#5200
b1110000 F
1)
#5400
0)
#5600
b1100000 F
1)
#5800
0)
#6000
b1000000 F
1)
#6200
0)
#6400
1#
b0 F
1)
#6600
0)
#6800
0D
0E
0.
04
1)
#7000
1D
1E
14
#7200
b1 7
b1 H
1.
#7400
0.
#7600
b10 7
b10 H
1.
#7800
0.
#8000
b11 7
b11 H
1.
#8200
0.
#8400
b100 7
b100 H
1.
#8600
0.
#8800
b101 7
b101 H
1.
#9000
0.
#9200
b110 7
b110 H
1.
#9400
0.
#9600
b111 7
b111 H
1.
#9800
0.
#10000
b0 7
b0 H
1.
#10200
0D
0E
0/
04
0.
#10400
1D
1E
14
#10600
b1 :
b1 I
1/
#10800
0/
#11000
b10 :
b10 I
1/
#11200
0/
#11400
b11 :
b11 I
1/
#11600
0/
#11800
b100 :
b100 I
1/
#12000
0/
#12200
b101 :
b101 I
1/
#12400
0/
#12600
b110 :
b110 I
1/
#12800
0/
#13000
b111 :
b111 I
1/
#13200
0/
#13400
b0 :
b0 I
1/
#13600
bx010101010101010101010101 !
bx010101010101010101010101 6
0D
1@
0;
0<
18
09
0>
0E
03
0(
0*
02
01
00
0,
04
b1010101010101010101010101010101 +
b1010101010101010101010101010101 5
0/
#13800
1D
1E
14
#14000
b1010101010101010101010101010101 !
b1010101010101010101010101010101 6
08
1<
1@
1K
1&
1L
1'
1$
1B
0%
b11 =
b11 ?
b11 J
1A
1>
1,
#14200
0>
0,
#14400
1;
0<
0@
0L
0'
0$
b10 =
b10 ?
b10 J
0A
1>
1,
#14600
0>
0,
#14800
0;
19
0@
0K
0&
1L
1'
0B
0$
b1 =
b1 ?
b1 J
1A
1>
1,
#15000
0>
0,
#15200
18
09
1@
0L
0'
1%
b0 =
b0 ?
b0 J
0A
1>
1,
#15400
0>
0,
#15600
0D
0E
1*
04
0,
#15800
1D
1E
14
#16000
08
1<
1K
1&
1L
1'
1$
1B
0%
b11 =
b11 ?
b11 J
1A
1>
1,
#16200
0>
0,
#16400
1;
0<
0L
0'
0$
b10 =
b10 ?
b10 J
0A
1>
1,
#16600
0>
0,
#16800
18
0;
0K
0&
1%
b0 =
b0 ?
b0 J
0B
0D
0@
0E
13
04
0,
#16920
1D
1E
14
#17120
08
19
1L
1'
0%
b1 =
b1 ?
b1 J
1A
1>
1,
#17320
0>
0,
#17520
18
09
0L
0'
1%
b0 =
b0 ?
b0 J
0A
1>
1,
#17720
0>
0,
#17920
08
19
1L
1'
0%
b1 =
b1 ?
b1 J
1A
1>
1,
#18120
bx !
bx 6
b1 :
b1 I
1/
#18320
0/
#18520
b10 :
b10 I
1/
#18720
0/
#18920
b11 :
b11 I
1/
#19120
0/
#19320
b100 :
b100 I
1/
#19520
0/
#19720
b101 :
b101 I
1/
#19920
0/
#20120
b110 :
b110 I
1/
#20320
0/
#20520
b111 :
b111 I
1/
#20720
0/
#20920
b1010101010101010101010101010101 !
b1010101010101010101010101010101 6
b0 :
b0 I
1/
